<svg xmlns="http://www.w3.org/2000/svg" xmlns:xlink="http://www.w3.org/1999/xlink" width="240" height="182" viewBox="0 0 240 182">
  <defs>
    <clipPath id="clip-logo-dga-vertical-color-over-bg-light-outline">
      <rect width="240" height="182"/>
    </clipPath>
  </defs>
  <g id="logo-dga-vertical-color-over-bg-light-outline" clip-path="url(#clip-logo-dga-vertical-color-over-bg-light-outline)">
    <g id="Grupo_23" data-name="Grupo 23" transform="translate(-578.997 -881.111)">
      <g id="Grupo_22" data-name="Grupo 22" transform="translate(649.221 900.111)">
        <g id="Grupo_21" data-name="Grupo 21" transform="translate(0 0.023)">
          <rect id="Rectángulo_12" data-name="Rectángulo 12" width="99.045" height="99.041" fill="gold"/>
        </g>
        <path id="Trazado_61" data-name="Trazado 61" d="M800.846,919.151l-23.79,4.765a45.7,45.7,0,0,1-24.849-3.224c-4.943-2.629-10.06-4.942-15.7-5.714a39.4,39.4,0,0,0-11.11-.035l-15.877,2.839c-2.524.491-5.153.946-7.711,1.367V901.135c3.89-.981,8.272-1.577,12.233-.28,2.348.525,4.381,1.891,6.554,2.944,4.381,2.313,8.587,5.081,13.494,6.168,6.519,1.822,14.23,1.4,20.749-.105l14.862-2.7,15.526-2.8,15.624-3.22Z" transform="translate(-701.803 -900.111)" fill="#dd171b" fill-rule="evenodd"/>
        <line id="Línea_2" data-name="Línea 2" y2="0.035" transform="translate(20.751 76.216)" fill="none"/>
        <path id="Trazado_62" data-name="Trazado 62" d="M722.554,1116.064a45.845,45.845,0,0,1,30.037,3.189,38.268,38.268,0,0,0,26.112,4.731l22.143-4v17.945c-3.12.667-6.16,1.3-9.455.806a20.084,20.084,0,0,1-5.012-1.437l-11.5-6.026a38.387,38.387,0,0,0-22.291-2.595l-47.562,8.728-3.225.524v-17.943l3.961-.806,10.41-1.928c2.1-.384,4.311-.771,6.379-1.19Z" transform="translate(-701.803 -1039.848)" fill="#dd171b" fill-rule="evenodd"/>
        <path id="Trazado_63" data-name="Trazado 63" d="M701.805,995.584V981.775l40.937-7.465a48.7,48.7,0,0,1,28.636,5.152c7.676,4.03,17.734,5.045,26.637,2.91l2.83-.594v13.81l-9.034-5.156a38.6,38.6,0,0,0-21.486-3.189l-25.165,4.591c-3.015.561-9.043,1.647-9.043,1.647L713.2,997.722A16.187,16.187,0,0,1,701.805,995.584Z" transform="translate(-701.803 -948.147)" fill="#dd171b" fill-rule="evenodd"/>
        <line id="Línea_3" data-name="Línea 3" transform="translate(0.002 33.767)" fill="none"/>
        <path id="Trazado_64" data-name="Trazado 64" d="M800.846,1044.733v13.6l-40.579,7.467a48.716,48.716,0,0,1-28.635-5.152c-7.676-4.03-17.735-5.048-26.638-2.91l-3.189.6v-13.6l9.393,4.943a38.609,38.609,0,0,0,21.485,3.189l25.165-4.591c3.015-.561,9.043-1.647,9.043-1.647l22.922-4.241A16.153,16.153,0,0,1,800.846,1044.733Z" transform="translate(-701.803 -992.562)" fill="#dd171b" fill-rule="evenodd"/>
      </g>
      <path id="Trazado_65" data-name="Trazado 65" d="M660.477,1234.847l6.692,18h-4.345l-1.915-5.478h-5.5l-1.943,5.478H649.2l6.557-18Zm-2.348,3.722-1.673,5.318h3.374Zm53.325,5.074h-4.02v5.667a5.459,5.459,0,0,1-7.069-5.424,5.6,5.6,0,0,1,5.963-5.855,9.42,9.42,0,0,1,5.127,1.565v-4.1a14.71,14.71,0,0,0-5.478-1.079c-5.828,0-9.875,3.913-9.875,9.525,0,5.532,3.966,9.283,9.875,9.283a16.352,16.352,0,0,0,5.478-.944Zm20.318.162a9.35,9.35,0,1,0-9.309,9.363A8.969,8.969,0,0,0,731.771,1243.806Zm-9.39-5.613c-3.022,0-5.046,2.294-5.046,5.667s2.078,5.667,5.126,5.667c3.023,0,5.019-2.267,5.019-5.667S725.43,1238.193,722.381,1238.193Zm10.944-3.346v18h4.1l0-11.468,7.256,11.468h3.8v-18h-4.1l0,11.194-6.967-11.194Zm-42.855,9.04-1.7-5.318-1.673,5.318ZM672,1252.845v-7.394h.512c2.591,0,2.861.27,4.587,4.723a8.927,8.927,0,0,0,.378.917l.351.837a8.073,8.073,0,0,0,.431.917H684.1l1.943-5.478h5.5l1.915,5.478h4.345l-6.692-18H686.4l-5.318,14.6c-.381-.783-.808-1.727-1.311-2.885a3.831,3.831,0,0,0-2.4-2.536,4.3,4.3,0,0,0,3.292-4.318c0-3.238-2.132-4.857-6.422-4.857h-6.368v18Zm0-10.794h1.78c1.728,0,2.591-.621,2.591-1.916s-.783-1.862-2.536-1.862H672Zm93.208-29.365v18h11.926v-3.643h-7.906v-4.1h7.826V1219.3h-7.826v-3h7.906v-3.615Zm-128.855,8.776h-4.02v5.666a5.293,5.293,0,0,1-1.727.243,5.353,5.353,0,0,1-5.342-5.667,5.6,5.6,0,0,1,5.963-5.855,9.431,9.431,0,0,1,5.127,1.565v-4.1a14.7,14.7,0,0,0-5.478-1.08c-5.828,0-9.876,3.913-9.876,9.526,0,5.531,3.967,9.281,9.876,9.281a16.349,16.349,0,0,0,5.478-.944Zm20.3.161a9.35,9.35,0,1,0-9.309,9.364A8.969,8.969,0,0,0,656.647,1221.624Zm-9.39-5.612c-3.022,0-5.046,2.293-5.046,5.666s2.078,5.667,5.127,5.667c3.022,0,5.019-2.267,5.019-5.667S650.306,1216.012,647.257,1216.012Zm10.736-3.346v18h7.448c3.966,0,6.287-1.97,6.287-5.343a4.681,4.681,0,0,0-3.751-4.694,3.945,3.945,0,0,0,2.456-3.7c.027-2.861-1.916-4.263-5.8-4.263Zm5.991,6.719c1.754,0,2.456-.486,2.456-1.7,0-1.16-.674-1.592-2.59-1.592H662.1v3.292Zm.54,7.609c2,0,2.86-.621,2.86-2.078,0-1.511-.891-2.1-3.022-2.1H662.1v4.182Zm12.073-14.328h-4.02v18h4.02Zm1.751,0v18h11.927v-3.643h-7.906v-4.1h7.826v-3.643h-7.826v-3h7.906v-3.615Zm63.553,8.958a9.35,9.35,0,1,0-9.309,9.364A8.969,8.969,0,0,0,741.9,1221.624Zm-9.39-5.612c-3.022,0-5.046,2.293-5.046,5.666s2.078,5.667,5.127,5.667c3.022,0,5.019-2.267,5.019-5.667S735.559,1216.012,732.51,1216.012Zm-36.364,14.652v-7.394h.512c2.59,0,2.86.27,4.587,4.722a8.977,8.977,0,0,0,.378.917l.351.836a8.028,8.028,0,0,0,.431.918h8.1l.023-11.546,7.236,11.546h3.8v-18h-4.1l.017,11.042-6.979-11.042h-4.1v16.753a37.407,37.407,0,0,1-2.488-5.042,3.833,3.833,0,0,0-2.4-2.536,4.3,4.3,0,0,0,3.291-4.317c0-3.238-2.131-4.857-6.422-4.857h-6.368v18Zm0-10.793h1.781c1.726,0,2.59-.621,2.59-1.916s-.782-1.861-2.536-1.861h-1.835Zm51.884-7.184v18h6.017c6.1,0,9.687-3.346,9.687-9.013,0-5.64-3.67-8.986-9.9-8.986Zm5.8,14.355c3.751,0,5.666-1.808,5.666-5.37,0-3.481-2-5.4-5.639-5.4h-1.754v10.767Z" transform="translate(0 -203.101)" fill="#161615" fill-rule="evenodd"/>
    </g>
  </g>
</svg>
