<svg xmlns="http://www.w3.org/2000/svg" xmlns:xlink="http://www.w3.org/1999/xlink" width="32" height="32" viewBox="0 0 32 32">
  <defs>
    <clipPath id="clip-path">
      <rect id="Rectángulo_10" data-name="Rectángulo 10" width="32" height="32.001" fill="gold"/>
    </clipPath>
    <clipPath id="clip-logo-dga-desy-header-mini">
      <rect width="32" height="32"/>
    </clipPath>
  </defs>
  <g id="logo-dga-desy-header-mini" clip-path="url(#clip-logo-dga-desy-header-mini)">
    <g id="Grupo_17" data-name="Grupo 17" transform="translate(-533.102 -1099.178)">
      <g id="Grupo_16" data-name="Grupo 16" transform="translate(533.102 1099.483)">
        <g id="Grupo_15" data-name="Grupo 15" transform="translate(0 0)">
          <rect id="Rectángulo_9" data-name="Rectángulo 9" width="32" height="32.001" fill="#fce400"/>
          <g id="Grupo_14" data-name="Grupo 14" clip-path="url(#clip-path)">
            <g id="Grupo_13" data-name="Grupo 13" transform="translate(0.001 -0.007)">
              <path id="Trazado_53" data-name="Trazado 53" d="M565.1,1106.171l-7.686,1.539a14.764,14.764,0,0,1-8.028-1.042,15.267,15.267,0,0,0-5.073-1.846,12.725,12.725,0,0,0-3.59-.011l-5.13.918c-.815.158-1.665.305-2.491.442v-5.821a7.213,7.213,0,0,1,3.952-.09,10.087,10.087,0,0,1,2.118.951,17.859,17.859,0,0,0,4.36,1.993,14.13,14.13,0,0,0,6.7-.034l4.8-.872,5.016-.906,5.048-1.04Z" transform="translate(-533.104 -1100.019)" fill="#dd171b" fill-rule="evenodd"/>
              <path id="Trazado_54" data-name="Trazado 54" d="M539.808,1201.828a14.812,14.812,0,0,1,9.7,1.03,12.363,12.363,0,0,0,8.437,1.529l7.154-1.291v5.8a8.37,8.37,0,0,1-3.055.26,6.509,6.509,0,0,1-1.619-.464l-3.714-1.948a12.4,12.4,0,0,0-7.2-.838l-15.366,2.82-1.042.169v-5.8l1.28-.26,3.363-.623c.679-.125,1.393-.249,2.061-.385Z" transform="translate(-533.104 -1177.202)" fill="#dd171b" fill-rule="evenodd"/>
              <path id="Trazado_55" data-name="Trazado 55" d="M533.1,1141.879v-4.462L546.33,1135a15.734,15.734,0,0,1,9.252,1.665,12.723,12.723,0,0,0,8.606.94l.914-.192v4.462l-2.919-1.666a12.472,12.472,0,0,0-6.941-1.031l-8.131,1.483c-.974.182-2.921.532-2.921.532l-7.406,1.371A5.23,5.23,0,0,1,533.1,1141.879Z" transform="translate(-533.104 -1126.552)" fill="#dd171b" fill-rule="evenodd"/>
              <path id="Trazado_56" data-name="Trazado 56" d="M565.1,1167.941v4.393l-13.11,2.413a15.735,15.735,0,0,1-9.252-1.665,12.721,12.721,0,0,0-8.606-.94l-1.03.193v-4.394l3.035,1.6a12.476,12.476,0,0,0,6.941,1.03l8.13-1.483c.974-.182,2.922-.532,2.922-.532l7.406-1.371A5.219,5.219,0,0,1,565.1,1167.941Z" transform="translate(-533.104 -1151.083)" fill="#dd171b" fill-rule="evenodd"/>
            </g>
          </g>
        </g>
      </g>
    </g>
  </g>
</svg>
