<svg xmlns="http://www.w3.org/2000/svg" xmlns:xlink="http://www.w3.org/1999/xlink" width="244" height="96" viewBox="0 0 244 96">
  <defs>
    <clipPath id="clip-path">
      <rect id="Rectángulo_10" data-name="Rectángulo 10" width="46.89" height="46.892" fill="gold"/>
    </clipPath>
    <clipPath id="clip-logo-dga-horizontal-color-over-bg-dark-framed-outline">
      <rect width="244" height="96"/>
    </clipPath>
  </defs>
  <g id="logo-dga-horizontal-color-over-bg-dark-framed-outline" clip-path="url(#clip-logo-dga-horizontal-color-over-bg-dark-framed-outline)">
    <g id="Grupo_17" data-name="Grupo 17" transform="translate(-519.102 -1075.178)">
      <path id="Sustracción_2" data-name="Sustracción 2" d="M41.89-1130.413H-10v-51.892H41.89v51.892ZM-7.5-1179.8v46.892H39.39V-1179.8Z" transform="translate(540.602 2279.283)" fill="#fff"/>
      <g id="Grupo_16" data-name="Grupo 16" transform="translate(533.102 1099.483)">
        <g id="Grupo_15" data-name="Grupo 15" transform="translate(0 0)">
          <rect id="Rectángulo_13" data-name="Rectángulo 13" width="46.89" height="46.892" fill="#fcd700"/>
          <g id="Grupo_14" data-name="Grupo 14" clip-path="url(#clip-path)">
            <g id="Grupo_13" data-name="Grupo 13" transform="translate(0.001 -0.011)">
              <path id="Trazado_53" data-name="Trazado 53" d="M579.992,1109.034l-11.263,2.256a21.634,21.634,0,0,1-11.764-1.526,22.372,22.372,0,0,0-7.434-2.705,18.647,18.647,0,0,0-5.26-.017l-7.517,1.345c-1.195.232-2.439.447-3.65.647V1100.5a10.57,10.57,0,0,1,5.791-.132,14.78,14.78,0,0,1,3.1,1.394c2.074,1.1,4.065,2.406,6.388,2.921a20.7,20.7,0,0,0,9.823-.05l7.036-1.278,7.35-1.328,7.4-1.525Z" transform="translate(-533.104 -1100.019)" fill="#dd171b" fill-rule="evenodd"/>
              <path id="Trazado_54" data-name="Trazado 54" d="M542.927,1202.009a21.705,21.705,0,0,1,14.22,1.51,18.115,18.115,0,0,0,12.362,2.24l10.483-1.892v8.5a12.265,12.265,0,0,1-4.476.382,9.534,9.534,0,0,1-2.373-.68l-5.442-2.854a18.175,18.175,0,0,0-10.553-1.228l-22.517,4.133-1.527.248v-8.5l1.875-.382,4.928-.913c1-.182,2.041-.365,3.02-.564Z" transform="translate(-533.104 -1165.924)" fill="#dd171b" fill-rule="evenodd"/>
              <path id="Trazado_55" data-name="Trazado 55" d="M533.1,1145.134V1138.6l19.381-3.535a23.053,23.053,0,0,1,13.557,2.439,18.644,18.644,0,0,0,12.611,1.378l1.34-.281v6.538l-4.277-2.441a18.276,18.276,0,0,0-10.171-1.51l-11.914,2.173c-1.427.266-4.281.78-4.281.78l-10.852,2.008A7.664,7.664,0,0,1,533.1,1145.134Z" transform="translate(-533.104 -1122.675)" fill="#dd171b" fill-rule="evenodd"/>
              <path id="Trazado_56" data-name="Trazado 56" d="M579.992,1168.323v6.438l-19.211,3.535a23.057,23.057,0,0,1-13.556-2.439,18.639,18.639,0,0,0-12.611-1.377l-1.51.282v-6.438l4.447,2.34a18.283,18.283,0,0,0,10.171,1.51L559.636,1170c1.427-.266,4.281-.78,4.281-.78l10.852-2.008A7.648,7.648,0,0,1,579.992,1168.323Z" transform="translate(-533.104 -1143.622)" fill="#dd171b" fill-rule="evenodd"/>
            </g>
          </g>
        </g>
      </g>
      <path id="Trazado_57" data-name="Trazado 57" d="M685.879,1142.068v-12.731h2.074c4.307,0,6.668,2.266,6.668,6.382,0,4.212-2.265,6.349-6.7,6.349Zm15.489-16.974v21.281h14.1v-4.307h-9.348v-4.85h9.253v-4.308h-9.253v-3.542h9.348v-4.275Zm32.389,0L726,1146.376h5.041l2.3-6.477h6.509l2.265,6.477h5.138l-7.912-21.281Zm2.807,4.4-1.978,6.287h3.989Zm63.051,6h-4.754v6.7a6.262,6.262,0,0,1-2.042.288c-3.638,0-6.317-2.84-6.317-6.7,0-4.147,2.84-6.923,7.051-6.923a11.142,11.142,0,0,1,6.062,1.851v-4.849a17.388,17.388,0,0,0-6.477-1.276c-6.891,0-11.677,4.626-11.677,11.262,0,6.54,4.689,10.976,11.677,10.976a19.329,19.329,0,0,0,6.477-1.117Zm24.023.192c0-6.35-4.722-10.976-11.167-10.976a11.024,11.024,0,0,0,.16,22.047C819.076,1146.758,823.638,1142.164,823.638,1135.687Zm-11.1-6.637c-3.573,0-5.966,2.713-5.966,6.7s2.456,6.7,6.062,6.7c3.573,0,5.934-2.681,5.934-6.7S816.14,1129.05,812.535,1129.05Zm12.94-3.956v21.281h4.85l0-13.56,8.58,13.56h4.5v-21.281h-4.849l.006,13.235-8.237-13.235Zm-126.6-15h-4.754v6.7a6.266,6.266,0,0,1-2.042.287c-3.637,0-6.317-2.84-6.317-6.7,0-4.148,2.84-6.923,7.051-6.923a11.152,11.152,0,0,1,6.062,1.85v-4.849a17.386,17.386,0,0,0-6.477-1.277c-6.891,0-11.677,4.626-11.677,11.263,0,6.54,4.69,10.974,11.677,10.974a19.342,19.342,0,0,0,6.477-1.116Zm24,.191c0-6.349-4.722-10.975-11.167-10.975a11.023,11.023,0,0,0,.159,22.046C718.307,1121.353,722.87,1116.758,722.87,1110.281Zm-11.1-6.636c-3.573,0-5.966,2.711-5.966,6.7s2.457,6.7,6.062,6.7c3.573,0,5.935-2.68,5.935-6.7S715.372,1103.646,711.767,1103.646Zm12.695-3.956v21.281h8.806c4.69,0,7.433-2.33,7.433-6.318,0-2.743-1.563-4.721-4.435-5.551a4.665,4.665,0,0,0,2.9-4.371c.032-3.382-2.265-5.041-6.859-5.041Zm7.083,7.944c2.074,0,2.9-.575,2.9-2.01,0-1.372-.8-1.882-3.062-1.882h-2.074v3.892Zm.638,9c2.36,0,3.381-.734,3.381-2.457,0-1.786-1.053-2.489-3.573-2.489h-2.679v4.946Zm14.274-16.942H741.7v21.281h4.754Zm2.07,0v21.281h14.1v-4.307h-9.349v-4.85h9.253v-4.307h-9.253v-3.541h9.349v-4.275Zm75.145,10.592c0-6.349-4.722-10.975-11.167-10.975a11.023,11.023,0,0,0,.16,22.046C819.111,1121.353,823.673,1116.758,823.673,1110.281Zm-11.1-6.636c-3.573,0-5.966,2.711-5.966,6.7s2.456,6.7,6.062,6.7c3.573,0,5.934-2.68,5.934-6.7S816.175,1103.646,812.57,1103.646ZM774.8,1135.782l-2.01-6.287-1.978,6.287Zm-21.843,10.593v-8.743h.606c3.063,0,3.382.319,5.423,5.583a10.7,10.7,0,0,0,.447,1.085l.415.989a9.523,9.523,0,0,0,.51,1.085h6.911l2.3-6.477h6.509l2.265,6.477h5.137l-7.912-21.281h-5.583l-6.288,17.258c-.45-.927-.955-2.042-1.549-3.411-.83-1.819-1.308-2.362-2.84-3a5.086,5.086,0,0,0,3.892-5.106c0-3.828-2.52-5.743-7.593-5.743h-7.53v21.281Zm0-12.763h2.105c2.042,0,3.063-.734,3.063-2.265s-.926-2.2-3-2.2h-2.17Zm16.613-12.643v-8.742h.605c3.063,0,3.382.319,5.424,5.583a10.427,10.427,0,0,0,.447,1.085l.415.989a9.465,9.465,0,0,0,.51,1.085h9.578l.027-13.652,8.555,13.652h4.5v-21.281h-4.849l.021,13.056-8.252-13.056H781.7V1119.5a44.3,44.3,0,0,1-2.942-5.962c-.829-1.818-1.307-2.36-2.839-3a5.085,5.085,0,0,0,3.892-5.1c0-3.829-2.521-5.743-7.594-5.743h-7.529v21.281Zm0-12.762h2.106c2.041,0,3.062-.734,3.062-2.265s-.924-2.2-3-2.2h-2.169Zm-88.513,16.887v21.281h7.114c7.21,0,11.454-3.956,11.454-10.657,0-6.669-4.339-10.625-11.709-10.625Z" transform="translate(-95.925 0)" fill="#fff" fill-rule="evenodd"/>
    </g>
  </g>
</svg>
