<?xml version="1.0" encoding="utf-8"?>
<!-- Generator: Adobe Illustrator 26.3.1, SVG Export Plug-In . SVG Version: 6.00 Build 0)  -->
<svg version="1.1" id="Capa_1" xmlns="http://www.w3.org/2000/svg" xmlns:xlink="http://www.w3.org/1999/xlink" x="0px" y="0px"
	 viewBox="0 0 278.5 56.8" style="enable-background:new 0 0 278.5 56.8;" xml:space="preserve">
<style type="text/css">
	.st0{fill:#1C1C1C;}
</style>
<g>
	<g id="logo-sda-horizontal-color-over-bg-light-outline">
		<g id="SDA-logomarca-tagline-positivo" transform="translate(14 22)">
			<g id="Grupo_20" transform="translate(0 0.986)">
				<g id="Grupo_18" transform="translate(0 33.168)">
					<path id="Trazado_93" class="st0" d="M-13.2-20.7v5.4c0,0,3.1,2.2,5.5,2s28.9-6,33.6-6.2s8-0.1,10.6,1.2s6.8,3.5,6.8,3.5v-5.8
						L-13.2-20.7z"/>
					<path id="Trazado_94" class="st0" d="M28.8-12C23.4-10.7,7.6-7.6,2.2-7.3C-1.3-7.2-4.9-7.9-8.1-9.4c-1-0.4-5.1-3-5.1-3v5.9
						h56.5v-5.2c-1-0.8-2.1-1.5-3.3-1.9C38.6-14,34.2-13.3,28.8-12L28.8-12z"/>
				</g>
				<g id="Grupo_19" transform="translate(0)">
					<path id="Trazado_95" class="st0" d="M0.9-4.7C1-2.9,0.2-1.1-1.2,0C-2.9,1.2-5,1.8-7.1,1.7c-2.1,0-4.2-0.4-6.2-1.3v-4.3
						c1.2,0.6,2.4,1,3.7,1.4c0.9,0.3,1.8,0.4,2.8,0.4c0.8,0.1,1.6-0.2,2.3-0.6c0.5-0.4,0.9-1,0.8-1.7c0-0.4-0.1-0.8-0.4-1.1
						c-0.3-0.4-0.6-0.7-1-1c-0.9-0.5-1.8-1-2.8-1.5c-1.1-0.5-2.1-1.1-3-1.8c-0.7-0.6-1.2-1.2-1.6-2c-0.4-0.8-0.6-1.7-0.6-2.7
						c-0.1-1.7,0.6-3.4,1.9-4.5c1.5-1.2,3.5-1.8,5.4-1.6c1.1,0,2.2,0.1,3.2,0.4c1.1,0.3,2.2,0.7,3.2,1.1l-1.5,3.6
						c-0.9-0.4-1.9-0.7-2.9-1c-0.7-0.2-1.5-0.3-2.2-0.3c-0.7,0-1.4,0.2-2,0.6c-0.5,0.4-0.7,1-0.7,1.6c0,0.4,0.1,0.7,0.3,1.1
						c0.2,0.4,0.5,0.6,0.9,0.9c0.9,0.6,1.9,1.1,2.9,1.5c1.6,0.7,3,1.6,4.2,2.9C0.6-7.2,1-6,0.9-4.7L0.9-4.7z"/>
					<path id="Trazado_96" class="st0" d="M22-9.7c0,3.6-1,6.3-3.1,8.2s-5,2.9-8.8,2.9H4v-21.7h6.8c3.5,0,6.3,0.9,8.3,2.8
						C21.1-15.7,22-13.1,22-9.7L22-9.7z M17.3-9.6c0-4.7-2.1-7-6.2-7H8.6v14.1h2C15-2.4,17.3-4.8,17.3-9.6z"/>
					<path id="Trazado_97" class="st0" d="M38.3,1.4l-1.6-5.2h-7.9l-1.6,5.2h-5L30-20.4h5.6l7.7,21.8L38.3,1.4z M35.7-7.7
						c-1.5-4.7-2.3-7.3-2.5-7.9c-0.2-0.6-0.3-1.1-0.4-1.5c-0.3,1.3-1.3,4.4-2.8,9.4H35.7z"/>
				</g>
			</g>
			<g id="Grupo_21" transform="translate(70.586)">
				<path id="Trazado_98" class="st0" d="M-1.2-5.4c0.1,1.5-0.6,3-1.8,4c-1.5,1-3.2,1.5-5,1.4c-1.8,0.1-3.6-0.2-5.2-0.9V-3
					c0.8,0.3,1.7,0.6,2.6,0.8C-9.7-2-8.8-1.9-7.9-1.9c1.2,0.1,2.4-0.2,3.4-0.8c0.7-0.5,1.2-1.4,1.1-2.4c0-0.6-0.1-1.1-0.4-1.6
					C-4.2-7.3-4.6-7.7-5.2-8C-6.1-8.4-7-8.8-8-9.2c-1.4-0.4-2.8-1.2-3.8-2.3c-0.8-1-1.2-2.2-1.1-3.4c0-1.4,0.6-2.7,1.7-3.5
					c1.3-0.9,2.8-1.4,4.4-1.3c1.8,0,3.6,0.3,5.3,1l-0.7,1.9c-1.5-0.6-3-1-4.6-1c-1-0.1-2,0.2-2.8,0.8c-0.7,0.5-1,1.3-1,2.1
					c0,0.6,0.1,1.1,0.4,1.6c0.3,0.5,0.7,0.9,1.2,1.2c0.9,0.5,1.7,0.9,2.7,1.2c1.5,0.4,3,1.2,4.2,2.3C-1.5-7.7-1.1-6.5-1.2-5.4
					L-1.2-5.4z"/>
				<path id="Trazado_99" class="st0" d="M7.7,0C5.8,0.1,4-0.6,2.7-1.9c-1.3-1.5-2-3.4-1.8-5.4c-0.1-2,0.5-3.9,1.7-5.5
					c1.1-1.4,2.8-2.1,4.6-2c1.6-0.1,3.2,0.6,4.3,1.8c1.1,1.3,1.7,3,1.6,4.7v1.4H3.1C3-5.7,3.5-4.3,4.4-3.2c0.9,0.9,2.1,1.4,3.4,1.3
					c1.6,0,3.1-0.3,4.6-1v1.9c-0.7,0.3-1.4,0.5-2.2,0.7C9.4-0.1,8.5,0,7.7,0L7.7,0z M7.1-13.1c-1,0-2.1,0.4-2.8,1.1
					c-0.7,0.9-1.2,2-1.2,3.1h7.5c0.1-1.1-0.2-2.2-0.9-3.2C9.1-12.7,8.1-13.1,7.1-13.1L7.1-13.1z"/>
				<path id="Trazado_100" class="st0" d="M22.2-14.9c0.6,0,1.2,0,1.7,0.2l-0.3,2c-0.5-0.1-1-0.2-1.6-0.2c-1.2,0-2.3,0.5-3,1.4
					c-0.8,1-1.3,2.2-1.2,3.5v7.7h-2.2v-14.4h1.8l0.2,2.7h0.1c0.5-0.9,1.1-1.6,1.9-2.2C20.4-14.6,21.3-14.9,22.2-14.9L22.2-14.9z"/>
				<path id="Trazado_101" class="st0" d="M30.2-0.3l-5.5-14.4h2.3l3.1,8.5c0.5,1.3,0.9,2.6,1.2,3.9h0.1c0.3-1,0.6-1.9,0.9-2.9
					c0.5-1.5,1.7-4.6,3.4-9.5h2.3L32.8-0.3H30.2L30.2-0.3z"/>
				<path id="Trazado_102" class="st0" d="M39.8-18.5c0-0.4,0.1-0.8,0.4-1.1c0.2-0.2,0.6-0.4,0.9-0.3c0.3,0,0.7,0.1,0.9,0.4
					c0.3,0.3,0.4,0.7,0.4,1.1c0,0.4-0.1,0.8-0.4,1.1c-0.5,0.5-1.3,0.5-1.8,0C39.9-17.7,39.8-18.1,39.8-18.5z M42.2-0.3H40v-14.4h2.2
					V-0.3z"/>
				<path id="Trazado_103" class="st0" d="M51.4,0c-1.8,0.1-3.6-0.6-4.8-1.9c-1.2-1.5-1.8-3.5-1.7-5.4c-0.1-2,0.5-4,1.7-5.6
					c1.3-1.4,3.1-2.1,5-2c0.7,0,1.4,0.1,2.1,0.2c0.6,0.1,1.1,0.3,1.6,0.5l-0.7,1.9c-0.5-0.2-1-0.4-1.6-0.5c-0.5-0.1-1-0.2-1.5-0.2
					c-2.9,0-4.4,1.9-4.4,5.6c-0.1,1.4,0.3,2.9,1.1,4.1c0.8,1,1.9,1.5,3.2,1.4c1.3,0,2.5-0.3,3.7-0.8v1.9C53.9-0.2,52.6,0.1,51.4,0
					L51.4,0z"/>
				<path id="Trazado_104" class="st0" d="M57.2-18.5c0-0.4,0.1-0.8,0.4-1.1c0.2-0.2,0.6-0.4,0.9-0.3c0.3,0,0.7,0.1,0.9,0.4
					c0.3,0.3,0.4,0.7,0.4,1.1c0,0.4-0.1,0.8-0.4,1.1c-0.5,0.5-1.3,0.5-1.8,0C57.3-17.7,57.2-18.1,57.2-18.5z M59.6-0.3h-2.2v-14.4
					h2.2L59.6-0.3z"/>
				<path id="Trazado_105" class="st0" d="M75.4-7.5c0.1,2-0.5,3.9-1.8,5.5c-1.3,1.4-3,2.1-4.9,2c-1.2,0-2.4-0.3-3.4-0.9
					c-1-0.6-1.8-1.5-2.3-2.6c-0.6-1.2-0.8-2.6-0.8-4c-0.1-2,0.5-3.9,1.8-5.5c1.3-1.3,3-2.1,4.9-2c1.8-0.1,3.6,0.6,4.8,2
					C74.9-11.4,75.5-9.4,75.4-7.5L75.4-7.5z M64.5-7.5c-0.1,1.5,0.3,3,1.1,4.2c1.6,1.8,4.4,1.9,6.2,0.3C71.8-3,71.9-3.1,72-3.3
					c0.8-1.2,1.2-2.7,1.1-4.2c0.1-1.5-0.3-2.9-1.1-4.2c-0.8-1-2-1.5-3.3-1.4c-1.2-0.1-2.4,0.4-3.2,1.4C64.7-10.4,64.3-8.9,64.5-7.5
					L64.5-7.5z"/>
				<path id="Trazado_106" class="st0" d="M87.4-4.2c0.1,1.2-0.5,2.4-1.5,3.1c-1.3,0.8-2.7,1.2-4.2,1.1c-1.5,0.1-3.1-0.2-4.5-0.9v-2
					c0.7,0.4,1.5,0.6,2.2,0.8c0.7,0.2,1.5,0.3,2.3,0.3c0.9,0.1,1.8-0.1,2.6-0.5c0.9-0.5,1.2-1.7,0.7-2.6c-0.1-0.2-0.3-0.4-0.5-0.5
					c-0.9-0.6-1.8-1.1-2.8-1.4c-1-0.3-1.9-0.8-2.9-1.3c-0.5-0.3-0.9-0.8-1.3-1.3c-0.3-0.5-0.4-1.1-0.4-1.7c0-1.1,0.5-2.2,1.4-2.8
					c1.2-0.7,2.5-1.1,3.9-1c1.6,0,3.1,0.3,4.5,0.9l-0.8,1.8c-1.2-0.5-2.6-0.9-3.9-0.9c-0.8-0.1-1.6,0.1-2.3,0.5
					c-0.5,0.3-0.8,0.8-0.8,1.3c0,0.4,0.1,0.7,0.3,1c0.3,0.3,0.6,0.6,1,0.8c0.8,0.4,1.7,0.8,2.5,1.1c1.3,0.4,2.4,1,3.5,1.9
					C87.1-5.9,87.4-5.1,87.4-4.2L87.4-4.2z"/>
				<path id="Trazado_107" class="st0" d="M112.8-10c0,3.2-0.9,5.6-2.6,7.3c-1.7,1.7-4.2,2.5-7.4,2.5h-5.3v-19.2h5.9
					c2.6-0.2,5.1,0.7,7,2.5C112-15.1,112.9-12.6,112.8-10L112.8-10z M110.4-10c0.2-2.1-0.5-4.1-1.9-5.7c-1.5-1.4-3.6-2.1-5.6-1.9
					h-3.2v15.3h2.7c2.7,0,4.7-0.7,6-2C109.7-5.5,110.4-7.4,110.4-10L110.4-10z"/>
				<path id="Trazado_108" class="st0" d="M115.5-18.5c0-0.4,0.1-0.8,0.4-1.1c0.2-0.2,0.6-0.4,0.9-0.3c0.3,0,0.7,0.1,0.9,0.4
					c0.3,0.3,0.4,0.7,0.4,1.1c0,0.4-0.1,0.8-0.4,1.1c-0.5,0.5-1.3,0.5-1.8,0C115.6-17.7,115.5-18.1,115.5-18.5z M117.9-0.3h-2.2
					v-14.4h2.2V-0.3z"/>
				<path id="Trazado_109" class="st0" d="M133.1-14.6v1.4l-2.7,0.3c0.3,0.4,0.5,0.8,0.7,1.2c0.2,0.5,0.3,1.1,0.3,1.7
					c0.1,1.3-0.5,2.5-1.4,3.4c-1.1,0.9-2.5,1.3-4,1.3c-0.4,0-0.8,0-1.2-0.1c-0.8,0.3-1.3,1-1.4,1.9c0,0.4,0.2,0.7,0.5,0.9
					c0.5,0.2,1.1,0.3,1.7,0.3h2.5c1.3-0.1,2.5,0.3,3.6,1c0.9,0.7,1.3,1.8,1.3,2.9c0.1,1.5-0.7,2.9-1.9,3.6c-1.7,0.9-3.6,1.4-5.6,1.3
					c-1.5,0.1-3-0.3-4.3-1c-1-0.7-1.6-1.8-1.5-3c0-0.8,0.3-1.6,0.8-2.3c0.6-0.7,1.5-1.1,2.4-1.3c-0.4-0.2-0.7-0.4-0.9-0.8
					c-0.3-0.4-0.4-0.8-0.4-1.2c0-0.5,0.1-1,0.4-1.4c0.4-0.5,0.8-0.9,1.3-1.1c-0.8-0.3-1.4-0.9-1.8-1.6c-0.5-0.8-0.7-1.6-0.7-2.5
					c-0.1-1.4,0.4-2.7,1.4-3.6c1.1-0.9,2.6-1.4,4-1.3c0.7,0,1.4,0.1,2,0.3L133.1-14.6L133.1-14.6z M121.6,2.2c0,0.7,0.4,1.4,1,1.8
					c0.9,0.5,1.8,0.7,2.8,0.6c1.4,0.1,2.8-0.2,4.1-0.8c0.8-0.4,1.3-1.3,1.3-2.2c0.1-0.6-0.2-1.3-0.7-1.6c-0.9-0.4-1.8-0.5-2.7-0.5
					h-2.6c-0.8-0.1-1.7,0.2-2.3,0.7C121.9,0.6,121.6,1.4,121.6,2.2L121.6,2.2z M122.8-10c-0.1,0.8,0.3,1.7,0.9,2.3
					c0.7,0.5,1.5,0.8,2.4,0.8c2.1,0,3.2-1,3.2-3.1c0.2-1.6-0.9-3-2.5-3.2c-0.2,0-0.5,0-0.7,0c-0.9-0.1-1.7,0.2-2.4,0.8
					C123-11.8,122.7-10.9,122.8-10L122.8-10z"/>
				<path id="Trazado_110" class="st0" d="M134.9-18.5c0-0.4,0.1-0.8,0.4-1.1c0.2-0.2,0.6-0.4,0.9-0.3c0.3,0,0.7,0.1,0.9,0.4
					c0.3,0.3,0.4,0.7,0.4,1.1c0,0.4-0.1,0.8-0.4,1.1c-0.5,0.5-1.3,0.5-1.8,0C135-17.7,134.9-18.1,134.9-18.5z M137.3-0.3h-2.2v-14.4
					h2.2V-0.3z"/>
				<path id="Trazado_111" class="st0" d="M145.8-1.8c0.4,0,0.7,0,1.1-0.1c0.3,0,0.6-0.1,0.9-0.2v1.7c-0.3,0.1-0.7,0.2-1,0.3
					C146.3,0,145.9,0,145.4,0c-2.8,0-4.2-1.5-4.2-4.4v-8.6h-2.1v-1l2.1-0.9l0.9-3.1h1.3v3.3h4.2v1.7h-4.2v8.5c0,0.7,0.2,1.4,0.6,2
					C144.5-2,145.1-1.8,145.8-1.8L145.8-1.8z"/>
				<path id="Trazado_112" class="st0" d="M159-0.3l-0.4-2h-0.1c-0.6,0.8-1.3,1.4-2.1,1.8c-0.8,0.3-1.8,0.5-2.7,0.5
					c-1.2,0.1-2.4-0.3-3.4-1.1c-0.8-0.8-1.3-2-1.2-3.1c0-2.9,2.3-4.4,7-4.6l2.4-0.1v-0.9c0.1-0.9-0.2-1.8-0.7-2.5
					c-0.6-0.6-1.5-0.9-2.3-0.8c-1.4,0.1-2.8,0.4-4.1,1.1l-0.7-1.7c0.7-0.4,1.5-0.7,2.3-0.9c0.8-0.2,1.7-0.3,2.5-0.3
					c1.4-0.1,2.7,0.3,3.8,1.1c0.9,1,1.4,2.3,1.2,3.7v9.8L159-0.3L159-0.3z M154.1-1.8c1.2,0.1,2.3-0.3,3.2-1.1
					c0.8-0.8,1.2-2,1.2-3.1v-1.3l-2.2,0.1c-1.3,0-2.6,0.2-3.7,0.8c-0.8,0.5-1.2,1.3-1.1,2.2c0,0.7,0.2,1.3,0.7,1.8
					C152.6-2,153.3-1.7,154.1-1.8L154.1-1.8z"/>
				<path id="Trazado_113" class="st0" d="M166.1-0.3H164v-20.4h2.2L166.1-0.3z"/>
				<path id="Trazado_114" class="st0" d="M175.8,0c-1.9,0.1-3.7-0.6-5-1.9c-1.3-1.5-2-3.4-1.8-5.4c-0.1-2,0.5-3.9,1.7-5.5
					c1.1-1.4,2.8-2.1,4.6-2c1.6-0.1,3.2,0.6,4.3,1.8c1.1,1.3,1.7,3,1.6,4.7v1.4h-9.9c-0.1,1.4,0.4,2.8,1.3,3.8
					c0.9,0.9,2.1,1.4,3.4,1.3c1.6,0,3.1-0.3,4.6-1v1.9c-0.7,0.3-1.4,0.5-2.2,0.7C177.4-0.1,176.6,0,175.8,0L175.8,0z M175.2-13.1
					c-1,0-2.1,0.4-2.8,1.1c-0.7,0.9-1.2,2-1.2,3.1h7.5c0.1-1.1-0.2-2.2-0.9-3.2C177.1-12.7,176.2-13.1,175.2-13.1L175.2-13.1z"/>
				<path id="Trazado_115" class="st0" d="M193.1-4.2c0.1,1.2-0.5,2.4-1.5,3.1c-1.3,0.8-2.7,1.2-4.2,1.1c-1.5,0.1-3.1-0.2-4.5-0.9
					v-2c0.7,0.4,1.5,0.6,2.2,0.8c0.7,0.2,1.5,0.3,2.3,0.3c0.9,0.1,1.8-0.1,2.6-0.5c0.9-0.5,1.2-1.7,0.7-2.6
					c-0.1-0.2-0.3-0.4-0.5-0.5c-0.9-0.6-1.8-1.1-2.8-1.4c-1-0.3-1.9-0.8-2.9-1.3c-0.5-0.3-0.9-0.8-1.3-1.3c-0.3-0.5-0.4-1.1-0.4-1.7
					c0-1.1,0.5-2.2,1.4-2.8c1.2-0.7,2.5-1.1,3.9-1c1.6,0,3.1,0.3,4.5,0.9l-0.8,1.8c-1.2-0.5-2.6-0.9-3.9-0.9
					c-0.8-0.1-1.6,0.1-2.3,0.5c-0.5,0.3-0.8,0.8-0.8,1.3c0,0.4,0.1,0.7,0.3,1c0.3,0.3,0.6,0.6,1,0.8c0.8,0.4,1.7,0.8,2.5,1.1
					c1.3,0.4,2.4,1,3.5,1.9C192.8-5.9,193.1-5.1,193.1-4.2L193.1-4.2z"/>
				<path id="Trazado_116" class="st0" d="M-2.5,25.6h-0.1c-1,1.5-2.7,2.3-4.5,2.2c-1.7,0.1-3.3-0.6-4.4-1.9
					c-1.1-1.6-1.7-3.5-1.6-5.5c-0.1-2,0.4-3.9,1.6-5.5c2.1-2.4,5.8-2.6,8.2-0.5c0.2,0.2,0.4,0.4,0.6,0.7h0.2l-0.1-1l-0.1-1V7.1h2.2
					v20.4h-1.8L-2.5,25.6L-2.5,25.6z M-6.9,26c1.2,0.1,2.4-0.3,3.2-1.2c0.8-1.2,1.1-2.5,1-3.9v-0.5c0.1-1.5-0.2-3.1-1-4.4
					c-0.8-0.9-2-1.4-3.2-1.3c-1.2-0.1-2.3,0.5-2.9,1.5c-0.7,1.3-1.1,2.7-1,4.2c-0.1,1.5,0.3,2.9,1,4.2C-9.2,25.5-8,26-6.9,26
					L-6.9,26z"/>
				<path id="Trazado_117" class="st0" d="M9.1,27.8c-1.9,0.1-3.7-0.6-5-1.9c-1.3-1.5-2-3.4-1.8-5.4c-0.1-2,0.5-3.9,1.7-5.5
					c1.1-1.4,2.8-2.1,4.6-2c1.6-0.1,3.2,0.6,4.3,1.8c1.1,1.3,1.7,3,1.6,4.7v1.4H4.5c-0.1,1.4,0.4,2.8,1.3,3.8
					c0.9,0.9,2.1,1.4,3.4,1.3c1.6,0,3.1-0.3,4.6-1v1.9c-0.7,0.3-1.4,0.5-2.2,0.7C10.8,27.7,10,27.8,9.1,27.8L9.1,27.8z M8.5,14.7
					c-1,0-2.1,0.4-2.8,1.1c-0.7,0.9-1.2,2-1.2,3.1h7.5c0.1-1.1-0.2-2.2-0.9-3.2C10.5,15.1,9.6,14.7,8.5,14.7L8.5,14.7z"/>
				<path id="Trazado_118" class="st0" d="M36.7,27.5l-2.4-6.1h-7.7l-2.4,6.1H22l7.6-19.3h1.9L39,27.5L36.7,27.5z M33.6,19.4
					l-2.2-5.9c-0.3-0.8-0.6-1.7-0.9-2.8c-0.2,0.9-0.5,1.9-0.8,2.8l-2.3,5.9H33.6L33.6,19.4z"/>
				<path id="Trazado_119" class="st0" d="M47.4,12.9c0.6,0,1.2,0,1.7,0.2l-0.3,2c-0.5-0.1-1-0.2-1.6-0.2c-1.2,0-2.3,0.5-3,1.4
					c-0.8,1-1.3,2.2-1.2,3.5v7.7h-2.2V13.2h1.8l0.2,2.7H43c0.5-0.9,1.1-1.6,1.9-2.2C45.6,13.2,46.5,12.9,47.4,12.9L47.4,12.9z"/>
				<path id="Trazado_120" class="st0" d="M59.5,27.5l-0.4-2h-0.1c-0.6,0.8-1.3,1.4-2.1,1.8c-0.8,0.3-1.8,0.5-2.7,0.5
					c-1.2,0.1-2.4-0.3-3.4-1.1c-0.8-0.8-1.3-2-1.2-3.1c0-2.9,2.3-4.4,7-4.6l2.4-0.1V18c0.1-0.9-0.2-1.8-0.7-2.5
					c-0.6-0.6-1.5-0.9-2.3-0.8c-1.4,0.1-2.8,0.4-4.1,1.1l-0.7-1.7c0.7-0.4,1.5-0.7,2.3-0.9c0.8-0.2,1.7-0.3,2.5-0.3
					c1.4-0.1,2.7,0.3,3.8,1.1c0.9,1,1.4,2.3,1.2,3.7v9.8L59.5,27.5L59.5,27.5z M54.6,26c1.2,0.1,2.3-0.3,3.2-1.1
					c0.8-0.8,1.2-2,1.2-3.1v-1.3l-2.2,0.1c-1.3,0-2.6,0.2-3.7,0.8c-0.8,0.5-1.2,1.3-1.1,2.2c0,0.7,0.2,1.3,0.7,1.8
					C53.1,25.8,53.8,26.1,54.6,26L54.6,26z"/>
				<path id="Trazado_121" class="st0" d="M76.2,13.2v1.4l-2.7,0.3c0.3,0.4,0.5,0.8,0.7,1.2c0.2,0.5,0.3,1.1,0.3,1.7
					c0.1,1.3-0.5,2.5-1.4,3.4c-1.1,0.9-2.5,1.3-4,1.3c-0.4,0-0.8,0-1.2-0.1c-0.8,0.3-1.3,1-1.4,1.8c0,0.4,0.2,0.7,0.5,0.9
					c0.5,0.2,1.1,0.3,1.7,0.3h2.5c1.3-0.1,2.5,0.3,3.6,1c0.9,0.7,1.3,1.8,1.3,2.9c0.1,1.5-0.7,2.9-1.9,3.6c-1.7,0.9-3.6,1.4-5.6,1.3
					c-1.5,0.1-3-0.3-4.3-1c-1-0.7-1.6-1.8-1.5-3c0-0.8,0.3-1.6,0.8-2.3c0.6-0.7,1.5-1.1,2.4-1.3c-0.4-0.2-0.7-0.4-0.9-0.8
					c-0.3-0.4-0.4-0.8-0.4-1.2c0-0.5,0.1-1,0.4-1.4c0.4-0.5,0.8-0.9,1.3-1.1c-0.8-0.3-1.4-0.9-1.8-1.6c-1.2-2-0.9-4.5,0.7-6.2
					c1.1-0.9,2.6-1.4,4-1.3c0.7,0,1.4,0.1,2,0.3L76.2,13.2L76.2,13.2z M64.7,30c0,0.7,0.4,1.4,1,1.8c0.9,0.5,1.8,0.7,2.8,0.6
					c1.4,0.1,2.8-0.2,4.1-0.8c0.8-0.4,1.3-1.3,1.3-2.2c0.1-0.6-0.2-1.3-0.7-1.6c-0.9-0.4-1.8-0.5-2.7-0.5h-2.6
					c-0.8-0.1-1.7,0.2-2.3,0.7C65,28.4,64.7,29.2,64.7,30L64.7,30z M65.9,17.8c-0.1,0.8,0.3,1.7,0.9,2.3c0.7,0.5,1.5,0.8,2.4,0.8
					c2.1,0,3.2-1,3.2-3.1c0.2-1.6-0.9-3-2.5-3.2c-0.2,0-0.5,0-0.7,0c-0.9-0.1-1.7,0.2-2.4,0.8C66.2,16,65.9,16.9,65.9,17.8
					L65.9,17.8z"/>
				<path id="Trazado_122" class="st0" d="M90.1,20.3c0.1,2-0.5,3.9-1.8,5.5c-1.3,1.4-3,2.1-4.9,2c-1.2,0-2.4-0.3-3.4-0.9
					c-1-0.6-1.8-1.5-2.3-2.6c-0.6-1.2-0.8-2.6-0.8-4c-0.1-2,0.5-3.9,1.8-5.5c1.3-1.3,3-2.1,4.9-2c1.8-0.1,3.6,0.6,4.8,2
					C89.6,16.4,90.2,18.4,90.1,20.3L90.1,20.3z M79.2,20.3c-0.1,1.5,0.3,3,1.1,4.2c1.6,1.8,4.4,1.9,6.2,0.3c0.1-0.1,0.2-0.2,0.3-0.3
					c0.8-1.2,1.2-2.7,1.1-4.2c0.1-1.5-0.3-2.9-1.1-4.2c-0.8-1-2-1.5-3.3-1.4c-1.2-0.1-2.4,0.4-3.2,1.4
					C79.5,17.4,79.1,18.9,79.2,20.3L79.2,20.3z M81.7,10.9c0.4-0.5,0.9-1.2,1.4-2c0.5-0.8,0.9-1.4,1.1-2h2.6v0.3
					c-0.5,0.7-1.1,1.4-1.7,2.1c-0.6,0.7-1.3,1.3-2,1.9h-1.5L81.7,10.9L81.7,10.9z"/>
				<path id="Trazado_123" class="st0" d="M102.7,27.5v-9.3c0.1-0.9-0.2-1.9-0.8-2.6c-0.7-0.6-1.6-0.9-2.5-0.9
					c-1.2-0.1-2.4,0.3-3.3,1.2c-0.8,1.2-1.2,2.6-1,4v7.5h-2.2V13.2h1.8l0.4,2h0.1c0.5-0.7,1.1-1.3,1.9-1.6c0.8-0.4,1.8-0.6,2.7-0.6
					c1.4-0.1,2.8,0.3,3.9,1.3c1,1.1,1.4,2.5,1.3,4v9.4L102.7,27.5L102.7,27.5z"/>
			</g>
		</g>
	</g>
</g>
</svg>
