<svg xmlns="http://www.w3.org/2000/svg" xmlns:xlink="http://www.w3.org/1999/xlink" width="316" height="154" viewBox="0 0 316 154">
  <defs>
    <clipPath id="clip-path">
      <rect id="Rectángulo_24" data-name="Rectángulo 24" width="301.026" height="137.174" fill="none"/>
    </clipPath>
    <clipPath id="clip-logo-plan-recuperacion-transformacion-resiliencia-vertical-color-over-bg-dark-outline">
      <rect width="316" height="154"/>
    </clipPath>
  </defs>
  <g id="logo-plan-recuperacion-transformacion-resiliencia-vertical-color-over-bg-dark-outline" clip-path="url(#clip-logo-plan-recuperacion-transformacion-resiliencia-vertical-color-over-bg-dark-outline)">
    <g id="Grupo_62" data-name="Grupo 62">
      <g id="Grupo_18" data-name="Grupo 18" transform="translate(7.307 8.169)">
        <path id="Trazado_1099" data-name="Trazado 1099" d="M182.73,0V14.5h13.3V72.81h15.681V14.5h13.238V0Z" transform="translate(-72.91)" fill="#fff"/>
        <g id="Grupo_17" data-name="Grupo 17" transform="translate(0 0)">
          <g id="Grupo_16" data-name="Grupo 16" clip-path="url(#clip-path)">
            <path id="Trazado_1100" data-name="Trazado 1100" d="M267.423,82.532l-2.191.7a47.635,47.635,0,0,1-10.939,2.124l-3.98.1,14.411,20.228h19.35Z" transform="translate(-99.876 -32.931)" fill="#fff"/>
            <path id="Trazado_1101" data-name="Trazado 1101" d="M191.463,101.863l-4.668-.27-.743-4.2-2.328,4.019-4.914-.285,3.405,2.919-2.336,4.162,4.449-2.32,4.4,2.832-1.357-4.232Z" transform="translate(-71.346 -38.862)" fill="#fff"/>
            <path id="Trazado_1102" data-name="Trazado 1102" d="M170.044,78.144l-4.351-.252-.7-3.782-2.162,3.616-4.58-.266,3.179,2.635L158.623,83.8l4.779-2.045,3.452,2.522-.622-3.777Z" transform="translate(-63.143 -29.57)" fill="#fff"/>
            <path id="Trazado_1103" data-name="Trazado 1103" d="M168.331,52.441l-3.92-.227-.641-3.226-1.938,3.076-4.126-.239,2.871,2.255-2.518,3.153,4.3-1.73,3.117,2.159-.571-3.221Z" transform="translate(-62.925 -19.547)" fill="#fff"/>
            <path id="Trazado_1104" data-name="Trazado 1104" d="M181.443,32.712l-3.411-.2-.573-2.546-1.671,2.416-3.59-.208,2.508,1.792-2.175,2.474,3.73-1.344,2.721,1.718-.512-2.543Z" transform="translate(-68.708 -11.958)" fill="#fff"/>
            <path id="Trazado_1105" data-name="Trazado 1105" d="M273.066,15.111a22.569,22.569,0,0,0-5.789-7.966A25.951,25.951,0,0,0,258.1,1.989,38.607,38.607,0,0,0,246.678.166c0,4.837.025,9.6,0,14.475a14.672,14.672,0,0,1,7.708,2.813q3.657,2.811,3.658,8.227v.208a10.194,10.194,0,0,1-3.5,7.862q-3.5,3.179-9.83,3.177l-11.356.019c.024,4.783,0,9.473,0,14.247h10.81a43.544,43.544,0,0,0,12.07-1.615,29.15,29.15,0,0,0,9.832-4.842,22.961,22.961,0,0,0,6.61-8.018,24.558,24.558,0,0,0,2.4-11.143v-.208a25.4,25.4,0,0,0-2.02-10.258" transform="translate(-93.112 -0.066)" fill="#fff"/>
            <path id="Trazado_1106" data-name="Trazado 1106" d="M57.821,158.837H63.76a6.988,6.988,0,0,1,2.336.364,4.964,4.964,0,0,1,1.744,1.028,4.5,4.5,0,0,1,1.1,1.588,5.284,5.284,0,0,1,.384,2.046v.041a5.1,5.1,0,0,1-.457,2.222,4.532,4.532,0,0,1-1.256,1.6,5.441,5.441,0,0,1-1.869.966,7.925,7.925,0,0,1-2.295.322H61.019v4.36h-3.2Zm5.731,7.33a2.6,2.6,0,0,0,1.868-.633,2.079,2.079,0,0,0,.665-1.567v-.041a1.984,1.984,0,0,0-.7-1.641,2.946,2.946,0,0,0-1.9-.561H61.019v4.444Z" transform="translate(-23.071 -63.377)" fill="#fff"/>
            <rect id="Rectángulo_22" data-name="Rectángulo 22" width="3.156" height="15.158" transform="translate(48.434 94.838)" fill="#fff"/>
            <path id="Trazado_1107" data-name="Trazado 1107" d="M93.5,175.759a4.936,4.936,0,0,1-1.485-.218,3.468,3.468,0,0,1-1.215-.654,3.122,3.122,0,0,1-.82-1.069,3.379,3.379,0,0,1-.3-1.463v-.041a3.5,3.5,0,0,1,.332-1.578,3.028,3.028,0,0,1,.924-1.1,4.157,4.157,0,0,1,1.412-.654,7.067,7.067,0,0,1,1.817-.218,7.79,7.79,0,0,1,1.484.124,9.528,9.528,0,0,1,1.236.332v-.186a1.892,1.892,0,0,0-.6-1.516,2.669,2.669,0,0,0-1.786-.52,7.4,7.4,0,0,0-1.609.156,10.733,10.733,0,0,0-1.464.447l-.789-2.409a12.4,12.4,0,0,1,1.91-.644,10.082,10.082,0,0,1,2.409-.249,6.84,6.84,0,0,1,2.232.322,3.968,3.968,0,0,1,1.526.924,3.741,3.741,0,0,1,.914,1.527,6.593,6.593,0,0,1,.29,2.024v6.458H96.861v-1.2a4.39,4.39,0,0,1-1.391,1.028,4.587,4.587,0,0,1-1.972.384m.955-2.18a2.789,2.789,0,0,0,1.8-.54,1.722,1.722,0,0,0,.675-1.412v-.561a4.846,4.846,0,0,0-.924-.3,4.956,4.956,0,0,0-1.09-.115,2.818,2.818,0,0,0-1.6.395,1.3,1.3,0,0,0-.581,1.143v.041a1.167,1.167,0,0,0,.477,1,2.043,2.043,0,0,0,1.246.353" transform="translate(-35.781 -65.555)" fill="#fff"/>
            <path id="Trazado_1108" data-name="Trazado 1108" d="M111.236,164.366h3.156v1.591a6.748,6.748,0,0,1,.592-.68,4.122,4.122,0,0,1,.716-.575,3.555,3.555,0,0,1,.873-.4,3.683,3.683,0,0,1,1.079-.147,3.557,3.557,0,0,1,2.793,1.1,4.382,4.382,0,0,1,.986,3.032V175.5h-3.156V169.3a2.5,2.5,0,0,0-.5-1.688,1.776,1.776,0,0,0-1.412-.57,1.875,1.875,0,0,0-1.443.57,2.4,2.4,0,0,0-.529,1.688V175.5h-3.156Z" transform="translate(-44.384 -65.5)" fill="#fff"/>
            <path id="Trazado_1109" data-name="Trazado 1109" d="M147.364,173.167a4.942,4.942,0,0,1-1.89-.374,4.664,4.664,0,0,1-1.62-1.111,5.526,5.526,0,0,1-1.132-1.807,6.619,6.619,0,0,1-.426-2.46v-.041a6.619,6.619,0,0,1,.426-2.46,5.624,5.624,0,0,1,1.121-1.807A4.57,4.57,0,0,1,145.453,162a5,5,0,0,1,1.911-.374,3.964,3.964,0,0,1,2.087.5,5.568,5.568,0,0,1,1.38,1.162V157.8h3.156v15.158h-3.156v-1.6a5,5,0,0,1-1.4,1.3,3.857,3.857,0,0,1-2.066.509m.81-2.679a2.551,2.551,0,0,0,1.049-.218,2.519,2.519,0,0,0,.852-.623,3.106,3.106,0,0,0,.581-.976,3.492,3.492,0,0,0,.218-1.256v-.041a3.5,3.5,0,0,0-.218-1.257,3.111,3.111,0,0,0-.581-.975,2.587,2.587,0,0,0-2.949-.623,2.624,2.624,0,0,0-.862.623,3.013,3.013,0,0,0-.591.965,3.473,3.473,0,0,0-.218,1.267v.041a3.492,3.492,0,0,0,.218,1.256,2.988,2.988,0,0,0,.591.976,2.624,2.624,0,0,0,.862.623,2.549,2.549,0,0,0,1.049.218" transform="translate(-56.777 -62.963)" fill="#fff"/>
            <path id="Trazado_1110" data-name="Trazado 1110" d="M171.363,175.746a6.348,6.348,0,0,1-2.315-.416,5.352,5.352,0,0,1-1.848-1.183,5.466,5.466,0,0,1-1.215-1.817,6.037,6.037,0,0,1-.436-2.336v-.042a6.215,6.215,0,0,1,.405-2.242,5.706,5.706,0,0,1,1.132-1.848,5.281,5.281,0,0,1,3.966-1.7,5.422,5.422,0,0,1,2.409.5,4.9,4.9,0,0,1,1.692,1.34,5.584,5.584,0,0,1,1,1.931,8.008,8.008,0,0,1,.322,2.274q0,.188-.011.395c-.006.138-.017.284-.031.436h-7.746a2.659,2.659,0,0,0,.945,1.629,2.824,2.824,0,0,0,1.775.551,3.521,3.521,0,0,0,1.413-.27,4.845,4.845,0,0,0,1.287-.872l1.806,1.6A5.6,5.6,0,0,1,174,175.2a5.935,5.935,0,0,1-2.637.551m2.035-6.687a3.066,3.066,0,0,0-.748-1.713,2.068,2.068,0,0,0-1.6-.654,2.122,2.122,0,0,0-1.609.644,3.234,3.234,0,0,0-.8,1.724Z" transform="translate(-66.055 -65.5)" fill="#fff"/>
            <path id="Trazado_1111" data-name="Trazado 1111" d="M198.545,158.837h6.645a5.733,5.733,0,0,1,4.236,1.475,4.49,4.49,0,0,1,1.246,3.322v.041a4.557,4.557,0,0,1-.862,2.876,4.987,4.987,0,0,1-2.253,1.63l3.551,5.191h-3.738l-3.115-4.651h-2.513v4.651h-3.2Zm6.437,7.061a2.655,2.655,0,0,0,1.817-.561,1.9,1.9,0,0,0,.633-1.5V163.8a1.855,1.855,0,0,0-.665-1.557,2.937,2.937,0,0,0-1.848-.519h-3.177V165.9Z" transform="translate(-79.22 -63.377)" fill="#fff"/>
            <path id="Trazado_1112" data-name="Trazado 1112" d="M227.888,175.746a6.347,6.347,0,0,1-2.315-.416,5.347,5.347,0,0,1-1.848-1.183,5.466,5.466,0,0,1-1.215-1.817,6.025,6.025,0,0,1-.436-2.336v-.042a6.216,6.216,0,0,1,.405-2.242,5.7,5.7,0,0,1,1.132-1.848,5.278,5.278,0,0,1,3.966-1.7,5.421,5.421,0,0,1,2.409.5,4.906,4.906,0,0,1,1.692,1.34,5.572,5.572,0,0,1,1,1.931A7.987,7.987,0,0,1,233,170.2q0,.188-.011.395c-.007.138-.017.284-.031.436h-7.746a2.656,2.656,0,0,0,.945,1.629,2.827,2.827,0,0,0,1.775.551,3.516,3.516,0,0,0,1.412-.27,4.825,4.825,0,0,0,1.287-.872l1.807,1.6a5.6,5.6,0,0,1-1.911,1.527,5.935,5.935,0,0,1-2.637.551m2.035-6.687a3.07,3.07,0,0,0-.748-1.713,2.068,2.068,0,0,0-1.6-.654,2.121,2.121,0,0,0-1.609.644,3.23,3.23,0,0,0-.8,1.724Z" transform="translate(-88.608 -65.5)" fill="#fff"/>
            <path id="Trazado_1113" data-name="Trazado 1113" d="M249.048,175.745a5.834,5.834,0,0,1-2.315-.457,5.6,5.6,0,0,1-3.042-3.063,5.751,5.751,0,0,1-.436-2.232v-.041a5.831,5.831,0,0,1,.436-2.243,5.762,5.762,0,0,1,1.2-1.848,5.588,5.588,0,0,1,1.838-1.245,5.93,5.93,0,0,1,2.356-.457,6.039,6.039,0,0,1,2.616.5,5.881,5.881,0,0,1,1.828,1.37L251.6,168.1a5.19,5.19,0,0,0-1.111-.893,2.8,2.8,0,0,0-1.423-.332,2.446,2.446,0,0,0-1.09.239,2.7,2.7,0,0,0-.851.654,2.984,2.984,0,0,0-.561.966,3.446,3.446,0,0,0-.2,1.173v.042a3.6,3.6,0,0,0,.2,1.2,2.869,2.869,0,0,0,.572.976,2.705,2.705,0,0,0,.893.654,2.748,2.748,0,0,0,1.162.239,2.847,2.847,0,0,0,1.381-.322,5.827,5.827,0,0,0,1.173-.862l1.848,1.869a7.091,7.091,0,0,1-1.848,1.463,5.575,5.575,0,0,1-2.7.572" transform="translate(-97.059 -65.5)" fill="#fff"/>
            <path id="Trazado_1114" data-name="Trazado 1114" d="M267.522,175.842a3.555,3.555,0,0,1-2.793-1.1,4.378,4.378,0,0,1-.986-3.032V164.5H266.9V170.7a2.5,2.5,0,0,0,.5,1.688,1.774,1.774,0,0,0,1.412.57,1.874,1.874,0,0,0,1.443-.57,2.4,2.4,0,0,0,.529-1.688V164.5h3.156v11.13h-3.156v-1.591a6.758,6.758,0,0,1-.591.68,4.145,4.145,0,0,1-.716.575,3.512,3.512,0,0,1-.873.4,3.686,3.686,0,0,1-1.079.147" transform="translate(-105.235 -65.638)" fill="#fff"/>
            <path id="Trazado_1115" data-name="Trazado 1115" d="M285.406,164.366h3.156v1.6a5,5,0,0,1,1.4-1.3,3.855,3.855,0,0,1,2.066-.509,4.959,4.959,0,0,1,1.89.374,4.677,4.677,0,0,1,1.619,1.111,5.542,5.542,0,0,1,1.132,1.807,6.619,6.619,0,0,1,.426,2.46v.042a6.619,6.619,0,0,1-.426,2.46,5.637,5.637,0,0,1-1.121,1.807,4.576,4.576,0,0,1-1.609,1.111,5,5,0,0,1-1.91.374,3.957,3.957,0,0,1-2.087-.5,5.566,5.566,0,0,1-1.382-1.163v4.776h-3.156Zm5.813,8.659a2.547,2.547,0,0,0,1.049-.218,2.64,2.64,0,0,0,.862-.623,3.032,3.032,0,0,0,.592-.965,3.474,3.474,0,0,0,.218-1.267v-.042a3.5,3.5,0,0,0-.218-1.257,3,3,0,0,0-.592-.975,2.639,2.639,0,0,0-.862-.623,2.55,2.55,0,0,0-2.948.623,3.1,3.1,0,0,0-.581.975,3.5,3.5,0,0,0-.218,1.257v.042a3.492,3.492,0,0,0,.218,1.256,3.1,3.1,0,0,0,.581.976,2.516,2.516,0,0,0,.851.623,2.555,2.555,0,0,0,1.049.218" transform="translate(-113.878 -65.5)" fill="#fff"/>
            <path id="Trazado_1116" data-name="Trazado 1116" d="M313.642,175.746a6.353,6.353,0,0,1-2.316-.416,5.369,5.369,0,0,1-1.848-1.183,5.484,5.484,0,0,1-1.215-1.817,6.037,6.037,0,0,1-.436-2.336v-.042a6.229,6.229,0,0,1,.405-2.242,5.7,5.7,0,0,1,1.131-1.848,5.281,5.281,0,0,1,3.967-1.7,5.423,5.423,0,0,1,2.409.5,4.906,4.906,0,0,1,1.692,1.34,5.572,5.572,0,0,1,1,1.931,7.988,7.988,0,0,1,.322,2.274q0,.188-.011.395t-.031.436h-7.745a2.656,2.656,0,0,0,.945,1.629,2.825,2.825,0,0,0,1.775.551,3.511,3.511,0,0,0,1.412-.27,4.817,4.817,0,0,0,1.288-.872l1.807,1.6a5.606,5.606,0,0,1-1.91,1.527,5.937,5.937,0,0,1-2.638.551m2.035-6.687a3.066,3.066,0,0,0-.748-1.713,2.069,2.069,0,0,0-1.6-.654,2.121,2.121,0,0,0-1.61.644,3.231,3.231,0,0,0-.8,1.724Z" transform="translate(-122.825 -65.5)" fill="#fff"/>
            <path id="Trazado_1117" data-name="Trazado 1117" d="M329.906,164.363h3.156V166.6a4.636,4.636,0,0,1,1.309-1.827,3.183,3.183,0,0,1,2.242-.623v3.3h-.166a3.255,3.255,0,0,0-2.482.955,4.2,4.2,0,0,0-.9,2.97v4.111h-3.156Z" transform="translate(-131.634 -65.496)" fill="#fff"/>
            <path id="Trazado_1118" data-name="Trazado 1118" d="M347.064,175.759a4.932,4.932,0,0,1-1.485-.218,3.468,3.468,0,0,1-1.215-.654,3.113,3.113,0,0,1-.82-1.069,3.37,3.37,0,0,1-.3-1.463v-.041a3.489,3.489,0,0,1,.332-1.578,3.026,3.026,0,0,1,.924-1.1,4.161,4.161,0,0,1,1.412-.654,7.059,7.059,0,0,1,1.817-.218,7.785,7.785,0,0,1,1.484.124,9.51,9.51,0,0,1,1.236.332v-.186a1.891,1.891,0,0,0-.6-1.516,2.669,2.669,0,0,0-1.786-.52,7.408,7.408,0,0,0-1.609.156,10.734,10.734,0,0,0-1.464.447l-.789-2.409a12.414,12.414,0,0,1,1.911-.644,10.081,10.081,0,0,1,2.409-.249,6.838,6.838,0,0,1,2.232.322,3.975,3.975,0,0,1,1.527.924,3.739,3.739,0,0,1,.913,1.527,6.574,6.574,0,0,1,.291,2.024v6.458h-3.052v-1.2a4.4,4.4,0,0,1-1.391,1.028,4.591,4.591,0,0,1-1.973.384m.956-2.18a2.787,2.787,0,0,0,1.8-.54,1.722,1.722,0,0,0,.675-1.412v-.561a4.875,4.875,0,0,0-.924-.3,4.961,4.961,0,0,0-1.091-.115,2.816,2.816,0,0,0-1.6.395,1.294,1.294,0,0,0-.582,1.143v.041a1.166,1.166,0,0,0,.478,1,2.041,2.041,0,0,0,1.246.353" transform="translate(-136.955 -65.555)" fill="#fff"/>
            <path id="Trazado_1119" data-name="Trazado 1119" d="M369.7,175.745a5.836,5.836,0,0,1-2.315-.457,5.6,5.6,0,0,1-3.043-3.063,5.761,5.761,0,0,1-.436-2.232v-.041a5.855,5.855,0,0,1,1.641-4.091,5.588,5.588,0,0,1,1.838-1.245,5.931,5.931,0,0,1,2.357-.457,6.044,6.044,0,0,1,2.617.5,5.885,5.885,0,0,1,1.827,1.37l-1.931,2.076a5.2,5.2,0,0,0-1.111-.893,2.8,2.8,0,0,0-1.423-.332,2.441,2.441,0,0,0-1.09.239,2.693,2.693,0,0,0-.852.654,2.983,2.983,0,0,0-.561.966,3.448,3.448,0,0,0-.2,1.173v.042a3.6,3.6,0,0,0,.2,1.2,2.868,2.868,0,0,0,.571.976,2.711,2.711,0,0,0,.893.654,2.749,2.749,0,0,0,1.163.239,2.849,2.849,0,0,0,1.381-.322,5.863,5.863,0,0,0,1.173-.862l1.848,1.869a7.113,7.113,0,0,1-1.848,1.463,5.579,5.579,0,0,1-2.7.572" transform="translate(-145.199 -65.5)" fill="#fff"/>
            <path id="Trazado_1120" data-name="Trazado 1120" d="M384.635,157.8h3.322v2.8h-3.322Zm.083,4.028h3.156v11.13h-3.156Z" transform="translate(-153.471 -62.963)" fill="#fff"/>
            <path id="Trazado_1121" data-name="Trazado 1121" d="M400.068,172.63a6.3,6.3,0,0,1-2.388-.447,5.834,5.834,0,0,1-1.9-1.225,5.7,5.7,0,0,1-1.256-1.828,5.574,5.574,0,0,1-.457-2.253v-.042a5.576,5.576,0,0,1,.457-2.253,5.738,5.738,0,0,1,1.266-1.838A6.007,6.007,0,0,1,397.7,161.5a6.22,6.22,0,0,1,2.409-.457,6.3,6.3,0,0,1,2.388.446,5.83,5.83,0,0,1,1.9,1.225,5.7,5.7,0,0,1,1.257,1.828,5.576,5.576,0,0,1,.457,2.253v.041a5.574,5.574,0,0,1-.457,2.253,5.739,5.739,0,0,1-1.267,1.838,6,6,0,0,1-1.911,1.246,6.226,6.226,0,0,1-2.408.457m.041-2.721a2.925,2.925,0,0,0,1.215-.239,2.678,2.678,0,0,0,.9-.653,2.89,2.89,0,0,0,.572-.966,3.455,3.455,0,0,0,.2-1.173v-.042a3.3,3.3,0,0,0-.208-1.173,2.944,2.944,0,0,0-1.537-1.65,2.786,2.786,0,0,0-1.183-.249,2.927,2.927,0,0,0-1.215.239,2.7,2.7,0,0,0-.9.654,2.886,2.886,0,0,0-.57.966,3.45,3.45,0,0,0-.2,1.173v.041a3.279,3.279,0,0,0,.207,1.173,2.977,2.977,0,0,0,1.526,1.651,2.77,2.77,0,0,0,1.194.249m1.121-13.559,2.72,1.183-2.658,2.492h-2.409Z" transform="translate(-157.234 -62.384)" fill="#fff"/>
            <path id="Trazado_1122" data-name="Trazado 1122" d="M417.906,164.366h3.156v1.591a6.9,6.9,0,0,1,.592-.68,4.129,4.129,0,0,1,.717-.575,3.541,3.541,0,0,1,.872-.4,3.683,3.683,0,0,1,1.079-.147,3.56,3.56,0,0,1,2.793,1.1,4.382,4.382,0,0,1,.986,3.032V175.5h-3.157V169.3a2.5,2.5,0,0,0-.5-1.688,1.779,1.779,0,0,0-1.412-.57,1.875,1.875,0,0,0-1.443.57,2.4,2.4,0,0,0-.53,1.688V175.5h-3.156Z" transform="translate(-166.746 -65.5)" fill="#fff"/>
            <path id="Trazado_1123" data-name="Trazado 1123" d="M437.98,182.873q2.192-.229,2.027-2.056h-1.279v-3.322h3.343v2.8a3.837,3.837,0,0,1-.99,2.959,4.124,4.124,0,0,1-2.83.924Z" transform="translate(-174.756 -70.821)" fill="#fff"/>
            <path id="Trazado_1124" data-name="Trazado 1124" d="M4.423,201.376H0v-2.949H12.044v2.949H7.621v11.587h-3.2Z" transform="translate(0 -79.173)" fill="#fff"/>
            <path id="Trazado_1125" data-name="Trazado 1125" d="M23.564,203.952H26.72v2.243a4.631,4.631,0,0,1,1.308-1.828,3.185,3.185,0,0,1,2.243-.623v3.3H30.1a3.252,3.252,0,0,0-2.481.956,4.2,4.2,0,0,0-.9,2.969v4.112H23.564Z" transform="translate(-9.402 -81.293)" fill="#fff"/>
            <path id="Trazado_1126" data-name="Trazado 1126" d="M40.721,215.348a4.954,4.954,0,0,1-1.485-.218,3.478,3.478,0,0,1-1.215-.654,3.127,3.127,0,0,1-.82-1.069,3.381,3.381,0,0,1-.3-1.463V211.9a3.5,3.5,0,0,1,.332-1.578,3.026,3.026,0,0,1,.924-1.1,4.133,4.133,0,0,1,1.412-.654,7.067,7.067,0,0,1,1.817-.218,7.79,7.79,0,0,1,1.484.124,9.337,9.337,0,0,1,1.236.332v-.187a1.893,1.893,0,0,0-.6-1.516,2.669,2.669,0,0,0-1.786-.519,7.405,7.405,0,0,0-1.609.156,10.82,10.82,0,0,0-1.464.447l-.789-2.409a12.533,12.533,0,0,1,1.91-.644,10.081,10.081,0,0,1,2.409-.249,6.84,6.84,0,0,1,2.232.322,3.968,3.968,0,0,1,1.526.924,3.745,3.745,0,0,1,.914,1.527,6.6,6.6,0,0,1,.29,2.024v6.458H44.085v-1.2a4.383,4.383,0,0,1-1.391,1.028,4.587,4.587,0,0,1-1.972.383m.955-2.18a2.789,2.789,0,0,0,1.8-.54,1.721,1.721,0,0,0,.675-1.412v-.561a4.846,4.846,0,0,0-.924-.3,4.994,4.994,0,0,0-1.09-.114,2.818,2.818,0,0,0-1.6.394,1.3,1.3,0,0,0-.581,1.143v.041a1.167,1.167,0,0,0,.477,1,2.047,2.047,0,0,0,1.246.353" transform="translate(-14.723 -81.351)" fill="#fff"/>
            <path id="Trazado_1127" data-name="Trazado 1127" d="M58.46,203.955h3.156v1.591a6.621,6.621,0,0,1,.592-.68,4.1,4.1,0,0,1,.716-.575,3.531,3.531,0,0,1,.873-.4,3.664,3.664,0,0,1,1.079-.147,3.555,3.555,0,0,1,2.793,1.1,4.38,4.38,0,0,1,.986,3.031v7.206H65.5v-6.194A2.5,2.5,0,0,0,65,207.2a1.776,1.776,0,0,0-1.412-.569,1.875,1.875,0,0,0-1.443.569,2.4,2.4,0,0,0-.529,1.688v6.194H58.46Z" transform="translate(-23.326 -81.296)" fill="#fff"/>
            <path id="Trazado_1128" data-name="Trazado 1128" d="M83.31,215.322a7.786,7.786,0,0,1-4.776-1.682l1.349-2.076a7.507,7.507,0,0,0,1.817,1,4.926,4.926,0,0,0,1.692.332,1.766,1.766,0,0,0,1.008-.228.706.706,0,0,0,.322-.6v-.042a.6.6,0,0,0-.187-.436,1.57,1.57,0,0,0-.508-.322,7.382,7.382,0,0,0-.738-.26c-.277-.083-.567-.172-.872-.27a11.86,11.86,0,0,1-1.173-.4,4.2,4.2,0,0,1-1.069-.623,3.03,3.03,0,0,1-.779-.945,2.863,2.863,0,0,1-.3-1.37v-.042a3.271,3.271,0,0,1,1.194-2.616,3.7,3.7,0,0,1,1.287-.685,5.348,5.348,0,0,1,1.589-.228,7.14,7.14,0,0,1,2.149.343,7.928,7.928,0,0,1,2,.945l-1.2,2.18a9.947,9.947,0,0,0-1.62-.758,4.221,4.221,0,0,0-1.392-.281,1.44,1.44,0,0,0-.871.219.66.66,0,0,0-.29.55v.041a.542.542,0,0,0,.186.405,2.065,2.065,0,0,0,.5.332,6.643,6.643,0,0,0,.717.3q.4.145.861.291.581.187,1.185.446a4.861,4.861,0,0,1,1.079.633,3.146,3.146,0,0,1,.79.913,2.582,2.582,0,0,1,.311,1.308v.041a3.709,3.709,0,0,1-.322,1.609,2.943,2.943,0,0,1-.9,1.111,4.075,4.075,0,0,1-1.36.654,6.194,6.194,0,0,1-1.671.218" transform="translate(-31.335 -81.324)" fill="#fff"/>
            <path id="Trazado_1129" data-name="Trazado 1129" d="M97.359,204.022H96.051v-2.6h1.308v-.706a3.667,3.667,0,0,1,.893-2.7,3.461,3.461,0,0,1,2.554-.872,8.411,8.411,0,0,1,1.277.083,6,6,0,0,1,.965.228v2.616a5.9,5.9,0,0,0-.685-.2,3.543,3.543,0,0,0-.748-.072q-1.142,0-1.142,1.2v.436h2.554v2.575h-2.513v8.431H97.359Z" transform="translate(-38.325 -78.663)" fill="#fff"/>
            <path id="Trazado_1130" data-name="Trazado 1130" d="M115.63,215.336a6.281,6.281,0,0,1-2.388-.447,5.827,5.827,0,0,1-1.9-1.225,5.685,5.685,0,0,1-1.256-1.828,5.574,5.574,0,0,1-.457-2.253v-.041a5.581,5.581,0,0,1,.457-2.254,5.757,5.757,0,0,1,1.266-1.838,6.012,6.012,0,0,1,1.911-1.245,6.22,6.22,0,0,1,2.409-.457,6.311,6.311,0,0,1,2.388.446,5.85,5.85,0,0,1,1.9,1.225,5.711,5.711,0,0,1,1.256,1.828,5.581,5.581,0,0,1,.457,2.254v.041a5.574,5.574,0,0,1-.457,2.253,5.731,5.731,0,0,1-1.266,1.838,5.994,5.994,0,0,1-1.911,1.246,6.22,6.22,0,0,1-2.409.457m.041-2.72a2.925,2.925,0,0,0,1.215-.239,2.667,2.667,0,0,0,.9-.654,2.874,2.874,0,0,0,.571-.965,3.449,3.449,0,0,0,.2-1.173v-.041a3.289,3.289,0,0,0-.208-1.174,2.946,2.946,0,0,0-1.536-1.65,2.8,2.8,0,0,0-1.184-.25,2.924,2.924,0,0,0-1.215.24,2.672,2.672,0,0,0-.9.653,2.878,2.878,0,0,0-.571.966,3.436,3.436,0,0,0-.2,1.174v.041a3.288,3.288,0,0,0,.208,1.173,2.982,2.982,0,0,0,1.527,1.651,2.772,2.772,0,0,0,1.194.249" transform="translate(-43.742 -81.297)" fill="#fff"/>
            <path id="Trazado_1131" data-name="Trazado 1131" d="M133.469,203.952h3.156v2.243a4.631,4.631,0,0,1,1.308-1.828,3.185,3.185,0,0,1,2.243-.623v3.3h-.166a3.252,3.252,0,0,0-2.481.956,4.2,4.2,0,0,0-.9,2.969v4.112h-3.156Z" transform="translate(-53.255 -81.293)" fill="#fff"/>
            <path id="Trazado_1132" data-name="Trazado 1132" d="M147.911,203.955h3.156v1.591a6.687,6.687,0,0,1,.591-.68,4.123,4.123,0,0,1,.716-.575,3.5,3.5,0,0,1,.883-.4,4.145,4.145,0,0,1,2.99.313,3.106,3.106,0,0,1,1.236,1.318,5.07,5.07,0,0,1,1.62-1.328,4.46,4.46,0,0,1,2.035-.45,3.65,3.65,0,0,1,2.762,1.038,4.248,4.248,0,0,1,1,3.052v7.247h-3.156v-6.194a2.572,2.572,0,0,0-.478-1.688,1.69,1.69,0,0,0-1.37-.569,1.783,1.783,0,0,0-1.4.569,2.461,2.461,0,0,0-.509,1.688v6.194h-3.156v-6.194a2.572,2.572,0,0,0-.477-1.688,1.69,1.69,0,0,0-1.371-.569,1.784,1.784,0,0,0-1.4.569,2.464,2.464,0,0,0-.508,1.688v6.194h-3.156Z" transform="translate(-59.017 -81.296)" fill="#fff"/>
            <path id="Trazado_1133" data-name="Trazado 1133" d="M183.45,215.348a4.954,4.954,0,0,1-1.485-.218,3.478,3.478,0,0,1-1.215-.654,3.127,3.127,0,0,1-.82-1.069,3.38,3.38,0,0,1-.3-1.463V211.9a3.5,3.5,0,0,1,.332-1.578,3.026,3.026,0,0,1,.924-1.1,4.134,4.134,0,0,1,1.412-.654,7.067,7.067,0,0,1,1.817-.218,7.79,7.79,0,0,1,1.484.124,9.337,9.337,0,0,1,1.236.332v-.187a1.893,1.893,0,0,0-.6-1.516,2.669,2.669,0,0,0-1.786-.519,7.405,7.405,0,0,0-1.609.156,10.82,10.82,0,0,0-1.464.447l-.789-2.409a12.533,12.533,0,0,1,1.91-.644,10.081,10.081,0,0,1,2.409-.249,6.84,6.84,0,0,1,2.232.322,3.968,3.968,0,0,1,1.526.924,3.745,3.745,0,0,1,.914,1.527,6.6,6.6,0,0,1,.29,2.024v6.458h-3.052v-1.2a4.382,4.382,0,0,1-1.391,1.028,4.586,4.586,0,0,1-1.972.383m.955-2.18a2.789,2.789,0,0,0,1.8-.54,1.721,1.721,0,0,0,.675-1.412v-.561a4.846,4.846,0,0,0-.924-.3,4.994,4.994,0,0,0-1.09-.114,2.818,2.818,0,0,0-1.6.394,1.3,1.3,0,0,0-.581,1.143v.041a1.167,1.167,0,0,0,.477,1,2.047,2.047,0,0,0,1.246.353" transform="translate(-71.673 -81.351)" fill="#fff"/>
            <path id="Trazado_1134" data-name="Trazado 1134" d="M206.085,215.336a5.835,5.835,0,0,1-2.315-.456,5.6,5.6,0,0,1-3.042-3.063,5.749,5.749,0,0,1-.436-2.232v-.041a5.831,5.831,0,0,1,.436-2.243,5.772,5.772,0,0,1,1.2-1.849,5.6,5.6,0,0,1,1.838-1.245,5.932,5.932,0,0,1,2.357-.457,6.039,6.039,0,0,1,2.616.5,5.882,5.882,0,0,1,1.828,1.37l-1.931,2.077a5.152,5.152,0,0,0-1.111-.893,2.794,2.794,0,0,0-1.422-.332,2.446,2.446,0,0,0-1.091.239,2.692,2.692,0,0,0-.851.653,2.974,2.974,0,0,0-.561.966,3.445,3.445,0,0,0-.2,1.173v.041a3.6,3.6,0,0,0,.2,1.2,2.848,2.848,0,0,0,.571.976,2.7,2.7,0,0,0,.893.654,2.748,2.748,0,0,0,1.163.239,2.844,2.844,0,0,0,1.38-.322,5.828,5.828,0,0,0,1.173-.862l1.848,1.869a7.093,7.093,0,0,1-1.848,1.463,5.574,5.574,0,0,1-2.7.571" transform="translate(-79.917 -81.297)" fill="#fff"/>
            <path id="Trazado_1135" data-name="Trazado 1135" d="M221.021,197.391h3.322v2.8h-3.322Zm.083,4.028h3.156v11.13H221.1Z" transform="translate(-88.188 -78.76)" fill="#fff"/>
            <path id="Trazado_1136" data-name="Trazado 1136" d="M236.454,212.219a6.3,6.3,0,0,1-2.388-.446,5.828,5.828,0,0,1-1.9-1.225,5.709,5.709,0,0,1-1.257-1.828,5.586,5.586,0,0,1-.457-2.253v-.041a5.588,5.588,0,0,1,.457-2.253,5.755,5.755,0,0,1,1.267-1.838,6,6,0,0,1,1.911-1.246,6.215,6.215,0,0,1,2.408-.457,6.31,6.31,0,0,1,2.388.446,5.844,5.844,0,0,1,1.9,1.225,5.707,5.707,0,0,1,1.256,1.828,5.577,5.577,0,0,1,.457,2.253v.041a5.577,5.577,0,0,1-.457,2.253,5.745,5.745,0,0,1-1.266,1.838,6,6,0,0,1-1.911,1.246,6.229,6.229,0,0,1-2.409.456m.041-2.72a2.927,2.927,0,0,0,1.215-.239,2.677,2.677,0,0,0,.9-.654,2.885,2.885,0,0,0,.571-.966,3.462,3.462,0,0,0,.2-1.173v-.041a3.3,3.3,0,0,0-.207-1.173,2.948,2.948,0,0,0-1.537-1.651,2.8,2.8,0,0,0-1.184-.249,2.924,2.924,0,0,0-1.215.239,2.685,2.685,0,0,0-.9.654,2.886,2.886,0,0,0-.571.966,3.446,3.446,0,0,0-.2,1.173v.041a3.3,3.3,0,0,0,.207,1.173,2.982,2.982,0,0,0,1.527,1.651,2.772,2.772,0,0,0,1.194.249m1.121-13.56,2.72,1.183-2.658,2.492h-2.409Z" transform="translate(-91.952 -78.181)" fill="#fff"/>
            <path id="Trazado_1137" data-name="Trazado 1137" d="M254.294,203.955h3.155v1.591a6.857,6.857,0,0,1,.593-.68,4.137,4.137,0,0,1,.716-.575,3.54,3.54,0,0,1,.873-.4,3.668,3.668,0,0,1,1.08-.147,3.556,3.556,0,0,1,2.793,1.1,4.381,4.381,0,0,1,.986,3.031v7.206h-3.156v-6.194a2.5,2.5,0,0,0-.5-1.688,1.777,1.777,0,0,0-1.412-.569,1.873,1.873,0,0,0-1.442.569,2.4,2.4,0,0,0-.531,1.688v6.194h-3.155Z" transform="translate(-101.464 -81.296)" fill="#fff"/>
            <path id="Trazado_1138" data-name="Trazado 1138" d="M288.18,218.609a5.164,5.164,0,0,1-1.537-.207,6.077,6.077,0,0,1-1.266-.561l1.059-2.284a3.5,3.5,0,0,0,.675.311,2.075,2.075,0,0,0,.675.125,1.192,1.192,0,0,0,.654-.156,1.43,1.43,0,0,0,.447-.572l-4.361-11.171h3.343l2.533,7.58,2.43-7.58h3.281l-4.277,11.4a8.624,8.624,0,0,1-.665,1.443,3.97,3.97,0,0,1-.779.965,2.6,2.6,0,0,1-.966.54,4.242,4.242,0,0,1-1.245.166" transform="translate(-113.527 -81.434)" fill="#fff"/>
            <path id="Trazado_1139" data-name="Trazado 1139" d="M317.83,198.426h6.645a5.736,5.736,0,0,1,4.236,1.475,4.49,4.49,0,0,1,1.245,3.323v.041a4.556,4.556,0,0,1-.862,2.876,4.987,4.987,0,0,1-2.253,1.63l3.551,5.191h-3.738l-3.115-4.652h-2.512v4.652h-3.2Zm6.437,7.061a2.654,2.654,0,0,0,1.817-.561,1.9,1.9,0,0,0,.633-1.495v-.041a1.857,1.857,0,0,0-.665-1.558,2.938,2.938,0,0,0-1.848-.519h-3.177v4.174Z" transform="translate(-126.816 -79.173)" fill="#fff"/>
            <path id="Trazado_1140" data-name="Trazado 1140" d="M347.174,215.335a6.353,6.353,0,0,1-2.316-.415,5.372,5.372,0,0,1-1.848-1.184,5.48,5.48,0,0,1-1.215-1.817,6.033,6.033,0,0,1-.436-2.335v-.041a6.224,6.224,0,0,1,.405-2.242,5.7,5.7,0,0,1,1.131-1.849,5.281,5.281,0,0,1,3.967-1.7,5.423,5.423,0,0,1,2.409.5,4.9,4.9,0,0,1,1.692,1.34,5.571,5.571,0,0,1,1,1.931,7.989,7.989,0,0,1,.322,2.274q0,.187-.011.395c-.007.139-.017.284-.031.436H344.5a2.659,2.659,0,0,0,.945,1.631,2.828,2.828,0,0,0,1.775.55,3.521,3.521,0,0,0,1.412-.27,4.79,4.79,0,0,0,1.288-.872l1.807,1.6a5.6,5.6,0,0,1-1.91,1.527,5.93,5.93,0,0,1-2.638.55m2.035-6.686a3.07,3.07,0,0,0-.748-1.713,2.07,2.07,0,0,0-1.6-.654,2.121,2.121,0,0,0-1.609.644,3.228,3.228,0,0,0-.8,1.724Z" transform="translate(-136.204 -81.296)" fill="#fff"/>
            <path id="Trazado_1141" data-name="Trazado 1141" d="M366.763,215.322a7.786,7.786,0,0,1-4.775-1.682l1.349-2.076a7.529,7.529,0,0,0,1.817,1,4.929,4.929,0,0,0,1.693.332,1.761,1.761,0,0,0,1.007-.228.7.7,0,0,0,.322-.6v-.042a.6.6,0,0,0-.186-.436,1.583,1.583,0,0,0-.508-.322,7.423,7.423,0,0,0-.737-.26q-.416-.124-.872-.27a11.693,11.693,0,0,1-1.173-.4,4.2,4.2,0,0,1-1.069-.623,3.022,3.022,0,0,1-.779-.945,2.863,2.863,0,0,1-.3-1.37v-.042a3.275,3.275,0,0,1,1.194-2.616,3.7,3.7,0,0,1,1.287-.685,5.351,5.351,0,0,1,1.589-.228,7.137,7.137,0,0,1,2.149.343,7.931,7.931,0,0,1,2,.945l-1.2,2.18a9.945,9.945,0,0,0-1.62-.758,4.218,4.218,0,0,0-1.391-.281,1.439,1.439,0,0,0-.872.219.66.66,0,0,0-.29.55v.041a.544.544,0,0,0,.186.405,2.077,2.077,0,0,0,.5.332,6.629,6.629,0,0,0,.716.3q.4.145.862.291.581.187,1.183.446a4.852,4.852,0,0,1,1.08.633,3.127,3.127,0,0,1,.789.913,2.582,2.582,0,0,1,.312,1.308v.041a3.718,3.718,0,0,1-.322,1.609,2.954,2.954,0,0,1-.9,1.111,4.086,4.086,0,0,1-1.36.654,6.2,6.2,0,0,1-1.672.218" transform="translate(-144.434 -81.324)" fill="#fff"/>
            <path id="Trazado_1142" data-name="Trazado 1142" d="M380.887,197.391h3.322v2.8h-3.322Zm.083,4.028h3.156v11.13H380.97Z" transform="translate(-151.976 -78.76)" fill="#fff"/>
            <rect id="Rectángulo_23" data-name="Rectángulo 23" width="3.156" height="15.158" transform="translate(235.265 118.631)" fill="#fff"/>
            <path id="Trazado_1143" data-name="Trazado 1143" d="M401.754,197.391h3.322v2.8h-3.322Zm.083,4.028h3.156v11.13h-3.156Z" transform="translate(-160.302 -78.76)" fill="#fff"/>
            <path id="Trazado_1144" data-name="Trazado 1144" d="M417,215.335a6.353,6.353,0,0,1-2.316-.415,5.371,5.371,0,0,1-1.848-1.184,5.48,5.48,0,0,1-1.215-1.817,6.032,6.032,0,0,1-.436-2.335v-.041a6.224,6.224,0,0,1,.405-2.242,5.7,5.7,0,0,1,1.131-1.849,5.281,5.281,0,0,1,3.966-1.7,5.424,5.424,0,0,1,2.409.5,4.9,4.9,0,0,1,1.692,1.34,5.57,5.57,0,0,1,1,1.931,7.989,7.989,0,0,1,.322,2.274q0,.187-.011.395c-.007.139-.017.284-.031.436h-7.745a2.659,2.659,0,0,0,.945,1.631,2.828,2.828,0,0,0,1.775.55,3.521,3.521,0,0,0,1.412-.27,4.791,4.791,0,0,0,1.288-.872l1.807,1.6a5.6,5.6,0,0,1-1.91,1.527,5.93,5.93,0,0,1-2.638.55m2.035-6.686a3.07,3.07,0,0,0-.748-1.713,2.071,2.071,0,0,0-1.6-.654,2.121,2.121,0,0,0-1.609.644,3.228,3.228,0,0,0-.8,1.724Z" transform="translate(-164.065 -81.296)" fill="#fff"/>
            <path id="Trazado_1145" data-name="Trazado 1145" d="M433.263,203.955h3.156v1.591a6.757,6.757,0,0,1,.592-.68,4.1,4.1,0,0,1,.717-.575,3.516,3.516,0,0,1,.872-.4,3.664,3.664,0,0,1,1.079-.147,3.558,3.558,0,0,1,2.793,1.1,4.381,4.381,0,0,1,.986,3.031v7.206H440.3v-6.194a2.5,2.5,0,0,0-.5-1.688,1.779,1.779,0,0,0-1.412-.569,1.875,1.875,0,0,0-1.443.569,2.4,2.4,0,0,0-.53,1.688v6.194h-3.156Z" transform="translate(-172.874 -81.296)" fill="#fff"/>
            <path id="Trazado_1146" data-name="Trazado 1146" d="M459.684,215.336a5.835,5.835,0,0,1-2.315-.456,5.6,5.6,0,0,1-3.043-3.063,5.76,5.76,0,0,1-.436-2.232v-.041a5.857,5.857,0,0,1,1.641-4.092,5.6,5.6,0,0,1,1.838-1.245,5.93,5.93,0,0,1,2.356-.457,6.044,6.044,0,0,1,2.617.5,5.886,5.886,0,0,1,1.827,1.37l-1.931,2.077a5.166,5.166,0,0,0-1.111-.893,2.8,2.8,0,0,0-1.423-.332,2.441,2.441,0,0,0-1.09.239,2.68,2.68,0,0,0-.852.653,2.984,2.984,0,0,0-.561.966,3.444,3.444,0,0,0-.2,1.173v.041a3.6,3.6,0,0,0,.2,1.2,2.857,2.857,0,0,0,.571.976,2.7,2.7,0,0,0,.893.654,2.749,2.749,0,0,0,1.163.239,2.848,2.848,0,0,0,1.381-.322,5.861,5.861,0,0,0,1.173-.862l1.848,1.869a7.114,7.114,0,0,1-1.848,1.463,5.58,5.58,0,0,1-2.7.571" transform="translate(-181.104 -81.297)" fill="#fff"/>
            <path id="Trazado_1147" data-name="Trazado 1147" d="M474.621,197.391h3.322v2.8h-3.322Zm.083,4.028h3.156v11.13H474.7Z" transform="translate(-189.376 -78.76)" fill="#fff"/>
            <path id="Trazado_1148" data-name="Trazado 1148" d="M487.666,215.348a4.951,4.951,0,0,1-1.485-.218,3.479,3.479,0,0,1-1.215-.654,3.119,3.119,0,0,1-.82-1.069,3.372,3.372,0,0,1-.3-1.463V211.9a3.489,3.489,0,0,1,.332-1.578,3.03,3.03,0,0,1,.924-1.1,4.137,4.137,0,0,1,1.412-.654,7.059,7.059,0,0,1,1.817-.218,7.785,7.785,0,0,1,1.484.124,9.32,9.32,0,0,1,1.236.332v-.187a1.892,1.892,0,0,0-.6-1.516,2.668,2.668,0,0,0-1.786-.519,7.413,7.413,0,0,0-1.609.156,10.82,10.82,0,0,0-1.464.447l-.789-2.409a12.537,12.537,0,0,1,1.911-.644,10.078,10.078,0,0,1,2.409-.249,6.837,6.837,0,0,1,2.232.322,3.975,3.975,0,0,1,1.527.924,3.743,3.743,0,0,1,.914,1.527,6.578,6.578,0,0,1,.291,2.024v6.458H491.03v-1.2a4.4,4.4,0,0,1-1.391,1.028,4.589,4.589,0,0,1-1.973.383m.956-2.18a2.787,2.787,0,0,0,1.8-.54,1.722,1.722,0,0,0,.676-1.412v-.561a4.875,4.875,0,0,0-.924-.3,5,5,0,0,0-1.091-.114,2.816,2.816,0,0,0-1.6.394,1.3,1.3,0,0,0-.582,1.143v.041a1.166,1.166,0,0,0,.478,1,2.045,2.045,0,0,0,1.246.353" transform="translate(-193.056 -81.351)" fill="#fff"/>
          </g>
        </g>
      </g>
    </g>
  </g>
</svg>
