<svg xmlns="http://www.w3.org/2000/svg" xmlns:xlink="http://www.w3.org/1999/xlink" width="240" height="200" viewBox="0 0 240 200">
  <defs>
    <clipPath id="clip-logo-feder-react-vertical-monochrome-over-bg-light">
      <rect width="240" height="200"/>
    </clipPath>
  </defs>
  <g id="logo-feder-react-vertical-monochrome-over-bg-light" clip-path="url(#clip-logo-feder-react-vertical-monochrome-over-bg-light)">
    <g id="logo-feder" transform="translate(-76 141)">
      <g id="fleag-eu" transform="translate(122 -134)">
        <g id="border" transform="translate(0)" opacity="0">
          <rect id="Rectángulo_5" data-name="Rectángulo 5" width="147.183" height="99.975" fill="#fff"/>
          <path id="Trazado_799" data-name="Trazado 799" d="M296.226,433.473" transform="translate(-222.634 -382.557)" fill="#fff"/>
        </g>
        <g id="blue" transform="translate(2.83 2.741)">
          <rect id="Rectángulo_6" data-name="Rectángulo 6" width="141.523" height="94.35" transform="translate(0 0)" fill="none" stroke="#000" stroke-width="1"/>
          <path id="Trazado_800" data-name="Trazado 800" d="M296.226,431.473" transform="translate(-225.465 -384.296)" fill="#003383"/>
        </g>
        <g id="stars" transform="translate(37.769 14.027)">
          <path id="Trazado_801" data-name="Trazado 801" d="M288.281,368.822l2.986-2.179,2.987,2.179-1.136-3.524,3.033-2.179h-3.739l-1.144-3.567-1.144,3.571-3.737,0,3.031,2.179Z" transform="translate(-255.474 -359.551)"/>
          <path id="Trazado_802" data-name="Trazado 802" d="M257.31,377.138l2.986-2.179,2.984,2.179-1.134-3.524,3.031-2.179h-3.739l-1.144-3.571-1.144,3.575-3.737,0,3.031,2.179Z" transform="translate(-239.958 -363.715)"/>
          <path id="Trazado_803" data-name="Trazado 803" d="M237.638,390.574l-1.144,3.575-3.737,0,3.031,2.179-1.136,3.524,2.986-2.179,2.986,2.179-1.136-3.524,3.031-2.179h-3.737Z" transform="translate(-228.607 -375.093)"/>
          <path id="Trazado_804" data-name="Trazado 804" d="M229.324,428.6l2.984,2.179-1.134-3.524,3.031-2.179h-3.737l-1.144-3.571-1.144,3.579-3.739-.008,3.033,2.179-1.136,3.524Z" transform="translate(-224.441 -390.588)"/>
          <path id="Trazado_805" data-name="Trazado 805" d="M238.783,456.1l-1.144-3.571-1.144,3.575-3.737,0,3.031,2.179-1.136,3.524,2.986-2.183,2.986,2.183-1.136-3.524,3.031-2.179Z" transform="translate(-228.607 -406.13)"/>
          <path id="Trazado_806" data-name="Trazado 806" d="M261.486,478.805l-1.144-3.567-1.142,3.571-3.739,0,3.031,2.179-1.135,3.524,2.986-2.179,2.984,2.179-1.134-3.524,3.031-2.179Z" transform="translate(-239.981 -417.508)"/>
          <path id="Trazado_807" data-name="Trazado 807" d="M292.416,487.028l-1.144-3.571-1.142,3.575-3.739,0,3.031,2.179-1.134,3.524,2.986-2.179,2.985,2.179-1.137-3.524,3.033-2.179Z" transform="translate(-255.476 -421.625)"/>
          <path id="Trazado_808" data-name="Trazado 808" d="M323.347,478.805l-1.142-3.567-1.146,3.571-3.735,0,3.029,2.179-1.134,3.524,2.986-2.179,2.986,2.179-1.138-3.524,3.033-2.179Z" transform="translate(-270.974 -417.508)"/>
          <path id="Trazado_809" data-name="Trazado 809" d="M346.054,456.1l-1.146-3.571-1.146,3.575-3.735,0,3.033,2.179-1.138,3.524,2.986-2.183,2.986,2.183-1.138-3.524,3.033-2.179Z" transform="translate(-282.348 -406.13)"/>
          <path id="Trazado_810" data-name="Trazado 810" d="M358.012,424.989h-3.739l-1.146-3.571-1.142,3.575-3.739,0,3.033,2.179-1.134,3.524,2.982-2.183,2.986,2.183-1.134-3.524Z" transform="translate(-286.465 -390.545)"/>
          <path id="Trazado_811" data-name="Trazado 811" d="M341.922,399.759l2.986-2.179,2.986,2.179-1.138-3.524,3.033-2.175h-3.735l-1.146-3.571-1.146,3.575-3.735,0,3.033,2.175Z" transform="translate(-282.348 -375.05)"/>
          <path id="Trazado_812" data-name="Trazado 812" d="M322.291,367.871l-1.142,3.575-3.739-.008,3.029,2.183-1.134,3.524,2.99-2.183,2.982,2.183-1.135-3.524,3.033-2.183h-3.743Z" transform="translate(-271.017 -363.719)"/>
        </g>
      </g>
      <text id="UNIÓN_EUROPEA" data-name="UNIÓN EUROPEA" transform="translate(196 -16)" font-size="15" font-family="Arial-BoldMT, Arial" font-weight="700"><tspan x="-63.34" y="0">UNIÓN EUROPEA</tspan></text>
      <text id="Fondo_Europeo_de_Desarrollo_Regional_FEDER_" data-name="Fondo Europeo de
Desarrollo Regional (FEDER)" transform="translate(196 -3)" font-size="9" font-family="ArialMT, Arial"><tspan x="-37.279" y="0">Fondo Europeo de</tspan><tspan x="-59.019" y="9">Desarrollo Regional (FEDER)</tspan></text>
      <text id="Financiado_como_parte_de_la_respuesta_de_la_Unión_a_la_pandemia_de_COVID-19" data-name="Financiado como parte de 
la respuesta de la Unión a 
la pandemia de COVID-19" transform="translate(196 18)" font-size="9" font-family="ArialMT, Arial"><tspan x="-53.281" y="0">Financiado como parte de </tspan><tspan x="-53.534" y="9">la respuesta de la Unión a </tspan><tspan x="-52.778" y="18">la pandemia de COVID-19</tspan></text>
      <text id="_Construyendo_Europa_desde_Aragón_" data-name="“Construyendo Europa desde Aragón”" transform="translate(196 48)" font-size="9" font-family="ArialMT, Arial"><tspan x="-75.799" y="0">“Construyendo Europa desde Aragón”</tspan></text>
    </g>
  </g>
</svg>
