<svg xmlns="http://www.w3.org/2000/svg" xmlns:xlink="http://www.w3.org/1999/xlink" width="575" height="96" viewBox="0 0 575 96">
  <defs>
    <clipPath id="clip-logo-feder-react-horizontal-color-over-bg-light">
      <rect width="575" height="96"/>
    </clipPath>
  </defs>
  <g id="logo-feder-react-horizontal-color-over-bg-light" clip-path="url(#clip-logo-feder-react-horizontal-color-over-bg-light)">
    <g id="logo-feder">
      <text id="UNIÓN_EUROPEA" data-name="UNIÓN EUROPEA" transform="translate(126 29)" fill="#039" font-size="12" font-family="Arial-BoldMT, Arial" font-weight="700"><tspan x="0" y="0">UNIÓN EUROPEA</tspan></text>
      <text id="Fondo_Europeo_de_Desarrollo_Regional_FEDER_" data-name="Fondo Europeo de Desarrollo Regional (FEDER)" transform="translate(126 44)" fill="#039" font-size="12" font-family="ArialMT, Arial"><tspan x="0" y="0">Fondo Europeo de Desarrollo Regional (FEDER)</tspan></text>
      <text id="Financiado_como_parte_de_la_respuesta_de_la_Unión_a_la_pandemia_de_COVID-19" data-name="Financiado como parte de la respuesta de la Unión a la pandemia de COVID-19" transform="translate(126 60)" fill="#039" font-size="12" font-family="ArialMT, Arial"><tspan x="0" y="0">Financiado como parte de la respuesta de la Unión a la pandemia de COVID-19</tspan></text>
      <text id="_Construyendo_Europa_desde_Aragón_" data-name="“Construyendo Europa desde Aragón”" transform="translate(126 75)" fill="#039" font-size="12" font-family="ArialMT, Arial"><tspan x="0" y="0">“Construyendo Europa desde Aragón”</tspan></text>
      <g id="fleag-eu" transform="translate(-136.753 -320.441)">
        <g id="border" transform="translate(148.753 331.441)" opacity="0">
          <rect id="Rectángulo_5" data-name="Rectángulo 5" width="108.453" height="73.667" transform="translate(0)" fill="#fff"/>
          <path id="Trazado_799" data-name="Trazado 799" d="M296.226,433.473" transform="translate(-242 -395.956)" fill="#fff"/>
        </g>
        <g id="blue" transform="translate(150.839 333.461)">
          <rect id="Rectángulo_6" data-name="Rectángulo 6" width="104.282" height="69.522" transform="translate(0 0)" fill="#039"/>
          <path id="Trazado_800" data-name="Trazado 800" d="M296.226,431.473" transform="translate(-244.085 -396.71)" fill="#003383"/>
        </g>
        <g id="stars" transform="translate(176.584 341.777)">
          <path id="Trazado_801" data-name="Trazado 801" d="M287.782,366.382l2.2-1.606,2.2,1.606-.837-2.6,2.235-1.606h-2.755l-.843-2.628-.843,2.631-2.753,0,2.233,1.606Z" transform="translate(-263.609 -359.551)" fill="#fc0"/>
          <path id="Trazado_802" data-name="Trazado 802" d="M256.811,374.7l2.2-1.606,2.2,1.606-.836-2.6,2.233-1.606h-2.755l-.843-2.631-.843,2.634-2.753,0,2.234,1.606Z" transform="translate(-244.025 -364.807)" fill="#fc0"/>
          <path id="Trazado_803" data-name="Trazado 803" d="M236.354,390.574l-.843,2.634-2.753,0,2.234,1.606-.837,2.6,2.2-1.606,2.2,1.606-.837-2.6,2.234-1.606H237.2Z" transform="translate(-229.699 -379.167)" fill="#fc0"/>
          <path id="Trazado_804" data-name="Trazado 804" d="M228.039,426.732l2.2,1.606-.836-2.6,2.234-1.606h-2.753l-.843-2.631-.843,2.637-2.755-.006,2.235,1.606-.837,2.6Z" transform="translate(-224.441 -398.723)" fill="#fc0"/>
          <path id="Trazado_805" data-name="Trazado 805" d="M237.2,455.159l-.843-2.631-.843,2.634-2.753,0,2.234,1.606-.837,2.6,2.2-1.609,2.2,1.609-.837-2.6,2.234-1.606Z" transform="translate(-229.699 -418.339)" fill="#fc0"/>
          <path id="Trazado_806" data-name="Trazado 806" d="M259.9,477.867l-.843-2.628-.842,2.631-2.755,0,2.234,1.606-.836,2.6,2.2-1.606,2.2,1.606-.836-2.6,2.234-1.606Z" transform="translate(-244.054 -432.699)" fill="#fc0"/>
          <path id="Trazado_807" data-name="Trazado 807" d="M290.83,486.088l-.843-2.631-.842,2.634-2.755,0,2.234,1.606-.836,2.6,2.2-1.606,2.2,1.606-.837-2.6,2.235-1.606Z" transform="translate(-263.611 -437.896)" fill="#fc0"/>
          <path id="Trazado_808" data-name="Trazado 808" d="M321.762,477.867l-.842-2.628-.845,2.631-2.752,0,2.232,1.606-.836,2.6,2.2-1.606,2.2,1.606-.839-2.6,2.235-1.606Z" transform="translate(-283.171 -432.699)" fill="#fc0"/>
          <path id="Trazado_809" data-name="Trazado 809" d="M344.469,455.159l-.845-2.631-.845,2.634-2.752,0,2.235,1.606-.839,2.6,2.2-1.609,2.2,1.609-.839-2.6,2.235-1.606Z" transform="translate(-297.526 -418.339)" fill="#fc0"/>
          <path id="Trazado_810" data-name="Trazado 810" d="M355.442,424.049h-2.755l-.845-2.631L351,424.052l-2.755,0,2.235,1.606-.836,2.6,2.2-1.609,2.2,1.609-.836-2.6Z" transform="translate(-302.722 -398.669)" fill="#fc0"/>
          <path id="Trazado_811" data-name="Trazado 811" d="M341.423,397.32l2.2-1.606,2.2,1.606-.839-2.6,2.235-1.6h-2.752l-.845-2.631-.845,2.634-2.752,0,2.235,1.6Z" transform="translate(-297.526 -379.112)" fill="#fc0"/>
          <path id="Trazado_812" data-name="Trazado 812" d="M321.007,367.871l-.842,2.634-2.755-.006,2.232,1.609-.836,2.6,2.2-1.609,2.2,1.609-.836-2.6,2.235-1.609h-2.758Z" transform="translate(-283.225 -364.812)" fill="#fc0"/>
        </g>
      </g>
    </g>
  </g>
</svg>
